subid,run1,run2
0025000,0025000s1r1_sess1rest1,0025000s2r1_sess2rest1
0025001,0025001s1r1_sess1rest2,0025001s2r1_sess2rest1
0025002,0025002s1r1_sess1rest1,0025002s2r1_sess2rest1
0025003,0025003s1r1_sess1rest2,0025003s2r1_sess2rest2
0025004,0025004s1r1_sess1rest2,0025004s2r1_sess2rest1
0025005,0025005s1r1_sess1rest1,0025005s2r1_sess2rest1
0025006,0025006s1r1_sess1rest2,0025006s2r1_sess2rest1
0025007,0025007s1r1_sess1rest2,0025007s2r1_sess2rest1
0025008,0025008s1r1_sess1rest1,0025008s2r1_sess2rest1
0025011,0025011s1r1_sess1rest1,0025011s2r1_sess2rest2
0025012,0025012s1r1_sess1rest1,0025012s2r1_sess2rest2
0025013,0025013s1r1_sess1rest1,0025013s2r1_sess2rest1
0025014,0025014s1r1_sess1rest1,0025014s2r1_sess2rest1
0025015,0025015s1r1_sess1rest1,0025015s2r1_sess2rest2
0025016,0025016s1r1_sess1rest1,0025016s2r1_sess2rest1
0025018,0025018s1r1_sess1rest2,0025018s2r1_sess2rest1
0025019,0025019s1r1_sess1rest2,0025019s2r2_sess2rest2
0025020,0025020s1r1_sess1rest2,0025020s2r1_sess2rest1
0025022,0025022s1r1_sess1rest1,0025022s2r1_sess2rest2
0025023,0025023s1r1_sess1rest2,0025023s2r1_sess2rest2
0025024,0025024s1r1_sess1rest1,0025024s2r1_sess2rest1
0025025,0025025s2r1_sess1rest1,0025025s2r1_sess2rest2
0025027,0025027s1r1_sess1rest2,0025027s2r1_sess2rest1
0025029,0025029s1r1_sess1rest1,0025029s2r1_sess2rest1
0025030,0025030s1r1_sess1rest1,0025030s2r1_sess2rest1
0025031,0025031s1r1_sess1rest1,0025031s2r1_sess2rest2
0025032,0025032s1r1_sess1rest2,0025032s2r1_sess2rest1
0025033,0025033s1r1_sess1rest2,0025033s2r1_sess2rest1
0025034,0025034s1r1_sess1rest1,0025034s2r1_sess2rest1
0025035,0025035s1r1_sess1rest1,0025035s2r1_sess2rest1
0025036,0025036s1r1_sess1rest1,0025036s2r1_sess2rest2
0025037,0025037s1r1_sess1rest1,0025037s2r1_sess2rest2
0025039,0025039s1r1_sess1rest2,0025039s2r1_sess2rest1
0025040,0025040s1r1_sess1rest2,0025040s2r1_sess2rest1
0025041,0025041s1r1_sess1rest2,0025041s2r1_sess2rest2
0025042,0025042s1r1_sess1rest1,0025042s2r1_sess2rest2
0025044,0025044s1r1_sess1rest1,0025044s2r1_sess2rest2
0025045,0025045s1r1_sess1rest1,0025045s2r1_sess2rest1
0025046,0025046s1r1_sess1rest2,0025046s2r1_sess2rest1
0025047,0025047s1r1_sess1rest2,0025047s2r1_sess2rest1
0025048,0025048s1r1_sess1rest1,0025048s2r1_sess2rest1
0025049,0025049s1r1_sess1rest1,0025049s2r1_sess2rest2
0025050,0025050s1r1_sess1rest2,0025050s2r1_sess2rest2
0025051,0025051s1r1_sess1rest1,0025051s2r1_sess2rest2
0025052,0025052s1r1_sess1rest1,0025052s2r1_sess2rest2
0025053,0025053s1r1_sess1rest2,0025053s2r1_sess2rest2
0025055,0025055s1r1_sess1rest1,0025055s2r1_sess2rest1
0025056,0025056s1r1_sess1rest2,0025056s2r1_sess2rest2
0025057,0025057s1r1_sess1rest1,0025057s2r1_sess2rest1
0025058,0025058s1r1_sess1rest1,0025058s2r1_sess2rest2
0025059,0025059s1r1_sess1rest2,0025059s2r1_sess2rest1
0025060,0025060s1r1_sess1rest2,0025060s2r1_sess2rest1
0025061,0025061s1r1_sess1rest1,0025061s2r1_sess2rest1
0025234,0025234s1r1_sess1rest1,0025234s2r1_sess2rest1
0025235,0025235s1r1_sess1rest1,0025235s2r1_sess2rest1
0025236,0025236s1r1_sess1rest1,0025236s2r1_sess2rest1
0025237,0025237s1r1_sess1rest1,0025237s2r1_sess2rest1
0025238,0025238s1r1_sess1rest1,0025238s2r1_sess2rest1
0025239,0025239s2r1_sess2rest1,0025239s3r1_sess3rest1
0025240,0025240s1r1_sess1rest1,0025240s2r1_sess2rest1
0025244,0025244s1r1_sess1rest1,0025244s2r1_sess2rest1
0025245,0025245s2r1_sess2rest1,0025245s3r1_sess3rest1
0025249,0025249s1r1_sess1rest1,0025249s2r1_sess2rest1
0025250,0025250s1r1_sess1rest1,0025250s2r1_sess2rest1
0025252,0025252s1r1_sess1rest1,0025252s2r1_sess2rest1
0025258,0025258s1r1_sess1rest1,0025258s2r1_sess2rest1
0025261,0025261s2r1_sess2rest1,0025261s3r1_sess3rest1
0025262,0025262s1r1_sess1rest1,0025262s2r1_sess2rest1
0025265,0025265s1r1_sess1rest1,0025265s2r1_sess2rest1
0025266,0025266s1r1_sess1rest1,0025266s2r1_sess2rest1
0025267,0025267s1r1_sess1rest1,0025267s3r1_sess2rest1
0025269,0025269s1r1_sess1rest1,0025269s2r1_sess2rest1
0025270,0025270s1r1_sess1rest1,0025270s3r1_sess3rest1
0025272,0025272s1r1_sess1rest1,0025272s2r1_sess2rest1
0025273,0025273s2r1_sess2rest1,0025273s3r1_sess3rest1
0025274,0025274s1r1_sess1rest1,0025274s2r1_sess2rest1
0025275,0025275s1r1_sess1rest1,0025275s3r1_sess3rest1
0025276,0025276s1r1_sess1rest1,0025276s2r1_sess2rest1
0025280,0025280s1r1_sess1rest1,0025280s2r1_sess2rest1
0025283,0025283s1r1_sess1rest1,0025283s2r1_sess2rest1
0025286,0025286s2r1_sess2rest1,0025286s3r1_sess3rest1
0025287,0025287s2r1_sess2rest1,0025287s3r1_sess3rest1
0025288,0025288s1r1_sess1rest1,0025288s2r1_sess2rest1
0025289,0025289s1r1_sess1rest1,0025289s2r1_sess2rest1
0025290,0025290s1r1_sess1rest1,0025290s2r1_sess2rest1
0025291,0025291s1r1_sess1rest1,0025291s2r1_sess2rest1
0025295,0025295s1r1_sess1rest1,0025295s2r1_sess2rest1
0025297,0025297s1r1_sess1rest1,0025297s2r1_sess2rest1
0025300,0025300s1r1_sess1rest1,0025300s2r1_sess2rest1
0025306,0025306s1r1_sess1rest1,0025306s2r1_sess2rest1
0025308,0025308s1r1_sess1rest1,0025308s2r1_sess2rest1
0025320,0025320s1r1_sess1rest1,0025320s2r1_sess2rest1
0025323,0025323s1r1_sess1rest1,0025323s2r1_sess2rest1
0025327,0025327s1r1_sess1rest1,0025327s2r1_sess2rest1
0025329,0025329s1r1_sess1rest1,0025329s2r1_sess2rest1
0025331,0025331s1r1_sess1rest1,0025331s2r1_sess2rest1
0025332,0025332s1r1_sess1rest1,0025332s2r1_sess2rest1
0026018,0026018s1r1_sess1rest1,0026018s2r1_sess2rest1
0026019,0026019s1r1_sess1rest1,0026019s2r1_sess2rest1
0026020,0026020s1r1_sess1rest1,0026020s2r1_sess2rest1
0026021,0026021s1r1_sess1rest1,0026021s2r1_sess2rest2
0026022,0026022s1r1_sess1rest1,0026022s2r1_sess2rest1
0026023,0026023s1r1_sess1rest1,0026023s2r1_sess2rest2
0026025,0026025s1r1_sess1rest1,0026025s2r1_sess2rest1
0026027,0026027s1r1_sess1rest1,0026027s2r1_sess2rest2
0026032,0026032s1r1_sess1rest1,0026032s2r1_sess2rest1
0026034,0026034s1r1_sess1rest1,0026034s2r1_sess2rest1
0026037,0026037s1r1_sess1rest1,0026037s2r1_sess2rest1
0026038,0026038s1r1_sess1rest1,0026038s2r1_sess2rest1
0026039,0026039s1r1_sess1rest1,0026039s2r1_sess2rest2
0026040,0026040s1r1_sess1rest1,0026040s2r1_sess2rest2
0026042,0026042s1r1_sess1rest1,0026042s2r1_sess2rest1
0026043,0026043s1r1_sess1rest1,0026043s2r1_sess2rest1
