----------------------------------------
Begin PBS Prologue Wed Apr 26 22:54:08 EDT 2017 1493261648
Job ID:		41933837.gpc-sched-ib0
Username:	edickie
Group:		arisvoin
Nodes:		gpc-f140n075-ib0
End PBS Prologue Wed Apr 26 22:54:09 EDT 2017 1493261649
----------------------------------------
FIX Training classifier with output training file: ./corr_LMU24 and Melodic outputs list: 0025363s1r2/RST/SESS01/fake.20160422.01.feat 0025364s1r2/RST/SESS01/fake.20160422.01.feat 0025365s1r3/RST/SESS01/fake.20160422.01.feat 0025366s1r4/RST/SESS01/fake.20160422.01.feat 0025367s1r1/RST/SESS01/fake.20160422.01.feat 0025369s1r4/RST/SESS01/fake.20160422.01.feat 0025370s1r3/RST/SESS01/fake.20160422.01.feat 0025372s1r1/RST/SESS01/fake.20160422.01.feat 0025373s1r1/RST/SESS01/fake.20160422.01.feat 0025374s1r1/RST/SESS01/fake.20160422.01.feat 0025375s1r3/RST/SESS01/fake.20160422.01.feat 0025376s1r2/RST/SESS01/fake.20160422.01.feat 0025380s1r4/RST/SESS01/fake.20160422.01.feat 0025381s1r2/RST/SESS01/fake.20160422.01.feat 0025382s1r4/RST/SESS01/fake.20160422.01.feat 0025385s1r1/RST/SESS01/fake.20160422.01.feat 0025387s1r1/RST/SESS01/fake.20160422.01.feat 0025388s1r2/RST/SESS01/fake.20160422.01.feat 0025390s1r1/RST/SESS01/fake.20160422.01.feat 0025391s1r2/RST/SESS01/fake.20160422.01.feat 0025392s1r4/RST/SESS01/fake.20160422.01.feat 0025393s1r2/RST/SESS01/fake.20160422.01.feat 0025399s1r3/RST/SESS01/fake.20160422.01.feat 0025401s1r1/RST/SESS01/fake.20160422.01.feat
 copy true labels and features into training directory
 running classifier training
 running LOO accuracy testing
leaving-out: 0025363s1r2/RST/SESS01/fake.20160422.01.feat
leaving-out: 0025364s1r2/RST/SESS01/fake.20160422.01.feat
leaving-out: 0025365s1r3/RST/SESS01/fake.20160422.01.feat
leaving-out: 0025366s1r4/RST/SESS01/fake.20160422.01.feat
leaving-out: 0025367s1r1/RST/SESS01/fake.20160422.01.feat
leaving-out: 0025369s1r4/RST/SESS01/fake.20160422.01.feat
leaving-out: 0025370s1r3/RST/SESS01/fake.20160422.01.feat
leaving-out: 0025372s1r1/RST/SESS01/fake.20160422.01.feat
leaving-out: 0025373s1r1/RST/SESS01/fake.20160422.01.feat
leaving-out: 0025374s1r1/RST/SESS01/fake.20160422.01.feat
leaving-out: 0025375s1r3/RST/SESS01/fake.20160422.01.feat
leaving-out: 0025376s1r2/RST/SESS01/fake.20160422.01.feat
leaving-out: 0025380s1r4/RST/SESS01/fake.20160422.01.feat
leaving-out: 0025381s1r2/RST/SESS01/fake.20160422.01.feat
leaving-out: 0025382s1r4/RST/SESS01/fake.20160422.01.feat
leaving-out: 0025385s1r1/RST/SESS01/fake.20160422.01.feat
leaving-out: 0025387s1r1/RST/SESS01/fake.20160422.01.feat
leaving-out: 0025388s1r2/RST/SESS01/fake.20160422.01.feat
leaving-out: 0025390s1r1/RST/SESS01/fake.20160422.01.feat
leaving-out: 0025391s1r2/RST/SESS01/fake.20160422.01.feat
leaving-out: 0025392s1r4/RST/SESS01/fake.20160422.01.feat
leaving-out: 0025393s1r2/RST/SESS01/fake.20160422.01.feat
leaving-out: 0025399s1r3/RST/SESS01/fake.20160422.01.feat
leaving-out: 0025401s1r1/RST/SESS01/fake.20160422.01.feat
----------------------------------------
Begin PBS Epilogue Wed Apr 26 23:36:21 EDT 2017 1493264181
Job ID:		41933837.gpc-sched-ib0
Username:	edickie
Group:		arisvoin
Job Name:	trainfix_LMU_2.sh
Session:	16139
Limits:		neednodes=1:ppn=8,nodes=1:ppn=8,walltime=02:00:00
Resources:	cput=00:45:12,mem=183220kb,vmem=1012832kb,walltime=00:42:08
Queue:		batch_ib
Account:		
Nodes:	gpc-f140n075-ib0
Killing leftovers...

End PBS Epilogue Wed Apr 26 23:36:23 EDT 2017 1493264183
----------------------------------------
