----------------------------------------
Begin PBS Prologue Sat Apr 29 00:29:09 EDT 2017 1493440149
Job ID:		41966131.gpc-sched-ib0
Username:	edickie
Group:		arisvoin
Nodes:		gpc-f118n003-ib0
End PBS Prologue Sat Apr 29 00:29:10 EDT 2017 1493440150
----------------------------------------
FIX Training classifier with output training file: ./CORR26Utah and Melodic outputs list: 0026018s1r1/RST/SESS01/fake.20160422.01.feat 0026019s2r1/RST/SESS01/fake.20160422.01.feat 0026020s2r1/RST/SESS01/fake.20160422.01.feat 0026021s2r2/RST/SESS01/fake.20160422.01.feat 0026022s1r1/RST/SESS01/fake.20160422.01.feat 0026023s2r2/RST/SESS01/fake.20160422.01.feat 0026024s2r2/RST/SESS01/fake.20160422.01.feat 0026025s2r1/RST/SESS01/fake.20160422.01.feat 0026026s2r1/RST/SESS01/fake.20160422.01.feat 0026027s1r1/RST/SESS01/fake.20160422.01.feat 0026028s1r1/RST/SESS01/fake.20160422.01.feat 0026029s1r1/RST/SESS01/fake.20160422.01.feat 0026030s2r2/RST/SESS01/fake.20160422.01.feat 0026031s2r1/RST/SESS01/fake.20160422.01.feat 0026032s2r2/RST/SESS01/fake.20160422.01.feat 0026033s2r1/RST/SESS01/fake.20160422.01.feat 0026034s2r2/RST/SESS01/fake.20160422.01.feat 0026035s2r2/RST/SESS01/fake.20160422.01.feat 0026036s2r1/RST/SESS01/fake.20160422.01.feat 0026037s2r2/RST/SESS01/fake.20160422.01.feat 0026038s2r2/RST/SESS01/fake.20160422.01.feat 0026039s1r1/RST/SESS01/fake.20160422.01.feat 0026040s2r1/RST/SESS01/fake.20160422.01.feat 0026041s1r1/RST/SESS01/fake.20160422.01.feat 0026042s1r1/RST/SESS01/fake.20160422.01.feat 0026043s2r1/RST/SESS01/fake.20160422.01.feat
 copy true labels and features into training directory
 running classifier training
 running LOO accuracy testing
leaving-out: 0026018s1r1/RST/SESS01/fake.20160422.01.feat
leaving-out: 0026019s2r1/RST/SESS01/fake.20160422.01.feat
leaving-out: 0026020s2r1/RST/SESS01/fake.20160422.01.feat
leaving-out: 0026021s2r2/RST/SESS01/fake.20160422.01.feat
leaving-out: 0026022s1r1/RST/SESS01/fake.20160422.01.feat
leaving-out: 0026023s2r2/RST/SESS01/fake.20160422.01.feat
leaving-out: 0026024s2r2/RST/SESS01/fake.20160422.01.feat
leaving-out: 0026025s2r1/RST/SESS01/fake.20160422.01.feat
leaving-out: 0026026s2r1/RST/SESS01/fake.20160422.01.feat
leaving-out: 0026027s1r1/RST/SESS01/fake.20160422.01.feat
leaving-out: 0026028s1r1/RST/SESS01/fake.20160422.01.feat
leaving-out: 0026029s1r1/RST/SESS01/fake.20160422.01.feat
leaving-out: 0026030s2r2/RST/SESS01/fake.20160422.01.feat
leaving-out: 0026031s2r1/RST/SESS01/fake.20160422.01.feat
leaving-out: 0026032s2r2/RST/SESS01/fake.20160422.01.feat
leaving-out: 0026033s2r1/RST/SESS01/fake.20160422.01.feat
leaving-out: 0026034s2r2/RST/SESS01/fake.20160422.01.feat
leaving-out: 0026035s2r2/RST/SESS01/fake.20160422.01.feat
leaving-out: 0026036s2r1/RST/SESS01/fake.20160422.01.feat
leaving-out: 0026037s2r2/RST/SESS01/fake.20160422.01.feat
leaving-out: 0026038s2r2/RST/SESS01/fake.20160422.01.feat
leaving-out: 0026039s1r1/RST/SESS01/fake.20160422.01.feat
leaving-out: 0026040s2r1/RST/SESS01/fake.20160422.01.feat
leaving-out: 0026041s1r1/RST/SESS01/fake.20160422.01.feat
leaving-out: 0026042s1r1/RST/SESS01/fake.20160422.01.feat
leaving-out: 0026043s2r1/RST/SESS01/fake.20160422.01.feat
----------------------------------------
Begin PBS Epilogue Sat Apr 29 01:29:34 EDT 2017 1493443774
Job ID:		41966131.gpc-sched-ib0
Username:	edickie
Group:		arisvoin
Job Name:	trainfix_CORR26Utah.sh
Session:	31754
Limits:		neednodes=1:ppn=8,nodes=1:ppn=8,walltime=02:00:00
Resources:	cput=01:03:50,mem=211488kb,vmem=1068060kb,walltime=01:00:20
Queue:		batch_ib
Account:		
Nodes:	gpc-f118n003-ib0
Killing leftovers...

End PBS Epilogue Sat Apr 29 01:29:36 EDT 2017 1493443776
----------------------------------------
