----------------------------------------
Begin PBS Prologue Sun Apr 30 23:20:02 EDT 2017 1493608802
Job ID:		41985534.gpc-sched-ib0
Username:	edickie
Group:		arisvoin
Nodes:		gpc-f142n045-ib0
End PBS Prologue Sun Apr 30 23:20:03 EDT 2017 1493608803
----------------------------------------
Cleaning up ramdisk directory /dev/shm/tmp.k08ACa on Mon May  1 00:19:47 EDT 2017
done at Mon May  1 00:19:47 EDT 2017
----------------------------------------
Begin PBS Epilogue Mon May  1 00:19:52 EDT 2017 1493612392
Job ID:		41985534.gpc-sched-ib0
Username:	edickie
Group:		arisvoin
Job Name:	qcfunc2hcpUtah
Session:	23766
Limits:		neednodes=1:ppn=8,nodes=1:ppn=8,walltime=05:30:00
Resources:	cput=03:50:48,mem=3709084kb,vmem=8535780kb,walltime=00:59:45
Queue:		batch_ib
Account:		
Nodes:	gpc-f142n045-ib0
Killing leftovers...

End PBS Epilogue Mon May  1 00:19:53 EDT 2017 1493612393
----------------------------------------
