----------------------------------------
Begin PBS Prologue Sun Apr 30 23:00:20 EDT 2017 1493607620
Job ID:		41985532.gpc-sched-ib0
Username:	edickie
Group:		arisvoin
Nodes:		gpc-f146n073-ib0
End PBS Prologue Sun Apr 30 23:00:21 EDT 2017 1493607621
----------------------------------------
Cleaning up ramdisk directory /dev/shm/tmp.roC8cQ on Mon May  1 00:55:51 EDT 2017
done at Mon May  1 00:55:51 EDT 2017
----------------------------------------
Begin PBS Epilogue Mon May  1 00:55:56 EDT 2017 1493614556
Job ID:		41985532.gpc-sched-ib0
Username:	edickie
Group:		arisvoin
Job Name:	qcfunc2hcpLMU_2
Session:	22951
Limits:		neednodes=1:ppn=8,nodes=1:ppn=8,walltime=05:30:00
Resources:	cput=07:12:57,mem=2016036kb,vmem=8302436kb,walltime=01:55:31
Queue:		batch_ib
Account:		
Nodes:	gpc-f146n073-ib0
Killing leftovers...

End PBS Epilogue Mon May  1 00:55:58 EDT 2017 1493614558
----------------------------------------
