----------------------------------------
Begin PBS Prologue Sun Apr 30 23:20:02 EDT 2017 1493608802
Job ID:		41985533.gpc-sched-ib0
Username:	edickie
Group:		arisvoin
Nodes:		gpc-f141n003-ib0
End PBS Prologue Sun Apr 30 23:20:03 EDT 2017 1493608803
----------------------------------------
Cleaning up ramdisk directory /dev/shm/tmp.2u9SuR on Mon May  1 05:00:03 EDT 2017
done at Mon May  1 05:00:03 EDT 2017
----------------------------------------
Begin PBS Epilogue Mon May  1 05:00:08 EDT 2017 1493629208
Job ID:		41985533.gpc-sched-ib0
Username:	edickie
Group:		arisvoin
Job Name:	qcRSNLMU_2
Session:	7755
Limits:		neednodes=1:ppn=8,nodes=1:ppn=8,walltime=12:00:00
Resources:	cput=19:07:03,mem=1994556kb,vmem=5165864kb,walltime=05:40:01
Queue:		batch_ib
Account:		
Nodes:	gpc-f141n003-ib0
Killing leftovers...

End PBS Epilogue Mon May  1 05:00:09 EDT 2017 1493629209
----------------------------------------
