----------------------------------------
Begin PBS Prologue Sun Apr 30 18:10:17 EDT 2017 1493590217
Job ID:		41981486.gpc-sched-ib0
Username:	edickie
Group:		arisvoin
Nodes:		gpc-f124n049-ib0
End PBS Prologue Sun Apr 30 18:10:18 EDT 2017 1493590218
----------------------------------------
Traceback (most recent call last):
  File "/home/a/arisvoin/edickie/code/ciftify/bin/cifti_vis_func2hcp", line 193, in <module>
    main()
  File "/home/a/arisvoin/edickie/code/ciftify/bin/cifti_vis_func2hcp", line 89, in main
    write_single_qc_page(user_settings, config)
  File "/home/a/arisvoin/edickie/code/ciftify/bin/cifti_vis_func2hcp", line 115, in write_single_qc_page
    generate_qc_page(user_settings, config, qc_dir, scene_dir, qc_html, temp_dir)
  File "/home/a/arisvoin/edickie/code/ciftify/ciftify/utilities.py", line 309, in __exit__
    shutil.rmtree(self.dir)
  File "/home/a/arisvoin/edickie/quarantine/python/2.7.11-Anaconda2-2.5.0/build/lib/python2.7/shutil.py", line 239, in rmtree
    onerror(os.listdir, path, sys.exc_info())
  File "/home/a/arisvoin/edickie/quarantine/python/2.7.11-Anaconda2-2.5.0/build/lib/python2.7/shutil.py", line 237, in rmtree
    names = os.listdir(path)
OSError: [Errno 2] No such file or directory: '/sgfs1/scratch3/a/arisvoin/edickie/CORR/hcp_fs6/Utah/scene0026018s1r1'
Traceback (most recent call last):
  File "/home/a/arisvoin/edickie/code/ciftify/bin/cifti_vis_func2hcp", line 193, in <module>
    main()
  File "/home/a/arisvoin/edickie/code/ciftify/bin/cifti_vis_func2hcp", line 89, in main
    write_single_qc_page(user_settings, config)
  File "/home/a/arisvoin/edickie/code/ciftify/bin/cifti_vis_func2hcp", line 115, in write_single_qc_page
    generate_qc_page(user_settings, config, qc_dir, scene_dir, qc_html, temp_dir)
  File "/home/a/arisvoin/edickie/code/ciftify/ciftify/utilities.py", line 309, in __exit__
    shutil.rmtree(self.dir)
  File "/home/a/arisvoin/edickie/quarantine/python/2.7.11-Anaconda2-2.5.0/build/lib/python2.7/shutil.py", line 239, in rmtree
    onerror(os.listdir, path, sys.exc_info())
  File "/home/a/arisvoin/edickie/quarantine/python/2.7.11-Anaconda2-2.5.0/build/lib/python2.7/shutil.py", line 237, in rmtree
    names = os.listdir(path)
OSError: [Errno 2] No such file or directory: '/sgfs1/scratch3/a/arisvoin/edickie/CORR/hcp_fs6/Utah/scene0026018s2r1'
Traceback (most recent call last):
  File "/home/a/arisvoin/edickie/code/ciftify/bin/cifti_vis_func2hcp", line 193, in <module>
    main()
  File "/home/a/arisvoin/edickie/code/ciftify/bin/cifti_vis_func2hcp", line 89, in main
    write_single_qc_page(user_settings, config)
  File "/home/a/arisvoin/edickie/code/ciftify/bin/cifti_vis_func2hcp", line 115, in write_single_qc_page
    generate_qc_page(user_settings, config, qc_dir, scene_dir, qc_html, temp_dir)
  File "/home/a/arisvoin/edickie/code/ciftify/ciftify/utilities.py", line 309, in __exit__
    shutil.rmtree(self.dir)
  File "/home/a/arisvoin/edickie/quarantine/python/2.7.11-Anaconda2-2.5.0/build/lib/python2.7/shutil.py", line 239, in rmtree
    onerror(os.listdir, path, sys.exc_info())
  File "/home/a/arisvoin/edickie/quarantine/python/2.7.11-Anaconda2-2.5.0/build/lib/python2.7/shutil.py", line 237, in rmtree
    names = os.listdir(path)
OSError: [Errno 2] No such file or directory: '/sgfs1/scratch3/a/arisvoin/edickie/CORR/hcp_fs6/Utah/scene0026018s2r1'
Traceback (most recent call last):
  File "/home/a/arisvoin/edickie/code/ciftify/bin/cifti_vis_func2hcp", line 193, in <module>
    main()
  File "/home/a/arisvoin/edickie/code/ciftify/bin/cifti_vis_func2hcp", line 89, in main
    write_single_qc_page(user_settings, config)
  File "/home/a/arisvoin/edickie/code/ciftify/bin/cifti_vis_func2hcp", line 115, in write_single_qc_page
    generate_qc_page(user_settings, config, qc_dir, scene_dir, qc_html, temp_dir)
  File "/home/a/arisvoin/edickie/code/ciftify/ciftify/utilities.py", line 309, in __exit__
    shutil.rmtree(self.dir)
  File "/home/a/arisvoin/edickie/quarantine/python/2.7.11-Anaconda2-2.5.0/build/lib/python2.7/shutil.py", line 239, in rmtree
    onerror(os.listdir, path, sys.exc_info())
  File "/home/a/arisvoin/edickie/quarantine/python/2.7.11-Anaconda2-2.5.0/build/lib/python2.7/shutil.py", line 237, in rmtree
    names = os.listdir(path)
OSError: [Errno 2] No such file or directory: '/sgfs1/scratch3/a/arisvoin/edickie/CORR/hcp_fs6/Utah/scene0026019s1r1'
Traceback (most recent call last):
  File "/home/a/arisvoin/edickie/code/ciftify/bin/cifti_vis_func2hcp", line 193, in <module>
    main()
  File "/home/a/arisvoin/edickie/code/ciftify/bin/cifti_vis_func2hcp", line 89, in main
    write_single_qc_page(user_settings, config)
  File "/home/a/arisvoin/edickie/code/ciftify/bin/cifti_vis_func2hcp", line 115, in write_single_qc_page
    generate_qc_page(user_settings, config, qc_dir, scene_dir, qc_html, temp_dir)
  File "/home/a/arisvoin/edickie/code/ciftify/ciftify/utilities.py", line 309, in __exit__
    shutil.rmtree(self.dir)
  File "/home/a/arisvoin/edickie/quarantine/python/2.7.11-Anaconda2-2.5.0/build/lib/python2.7/shutil.py", line 239, in rmtree
    onerror(os.listdir, path, sys.exc_info())
  File "/home/a/arisvoin/edickie/quarantine/python/2.7.11-Anaconda2-2.5.0/build/lib/python2.7/shutil.py", line 237, in rmtree
    names = os.listdir(path)
OSError: [Errno 2] No such file or directory: '/sgfs1/scratch3/a/arisvoin/edickie/CORR/hcp_fs6/Utah/scene0026019s2r1'
Traceback (most recent call last):
  File "/home/a/arisvoin/edickie/code/ciftify/bin/cifti_vis_func2hcp", line 193, in <module>
    main()
  File "/home/a/arisvoin/edickie/code/ciftify/bin/cifti_vis_func2hcp", line 89, in main
    write_single_qc_page(user_settings, config)
  File "/home/a/arisvoin/edickie/code/ciftify/bin/cifti_vis_func2hcp", line 115, in write_single_qc_page
    generate_qc_page(user_settings, config, qc_dir, scene_dir, qc_html, temp_dir)
  File "/home/a/arisvoin/edickie/code/ciftify/ciftify/utilities.py", line 309, in __exit__
    shutil.rmtree(self.dir)
  File "/home/a/arisvoin/edickie/quarantine/python/2.7.11-Anaconda2-2.5.0/build/lib/python2.7/shutil.py", line 239, in rmtree
    onerror(os.listdir, path, sys.exc_info())
  File "/home/a/arisvoin/edickie/quarantine/python/2.7.11-Anaconda2-2.5.0/build/lib/python2.7/shutil.py", line 237, in rmtree
    names = os.listdir(path)
OSError: [Errno 2] No such file or directory: '/sgfs1/scratch3/a/arisvoin/edickie/CORR/hcp_fs6/Utah/scene0026019s2r1'
Traceback (most recent call last):
  File "/home/a/arisvoin/edickie/code/ciftify/bin/cifti_vis_func2hcp", line 193, in <module>
    main()
  File "/home/a/arisvoin/edickie/code/ciftify/bin/cifti_vis_func2hcp", line 89, in main
    write_single_qc_page(user_settings, config)
  File "/home/a/arisvoin/edickie/code/ciftify/bin/cifti_vis_func2hcp", line 115, in write_single_qc_page
    generate_qc_page(user_settings, config, qc_dir, scene_dir, qc_html, temp_dir)
  File "/home/a/arisvoin/edickie/code/ciftify/ciftify/utilities.py", line 309, in __exit__
    shutil.rmtree(self.dir)
  File "/home/a/arisvoin/edickie/quarantine/python/2.7.11-Anaconda2-2.5.0/build/lib/python2.7/shutil.py", line 239, in rmtree
    onerror(os.listdir, path, sys.exc_info())
  File "/home/a/arisvoin/edickie/quarantine/python/2.7.11-Anaconda2-2.5.0/build/lib/python2.7/shutil.py", line 237, in rmtree
    names = os.listdir(path)
OSError: [Errno 2] No such file or directory: '/sgfs1/scratch3/a/arisvoin/edickie/CORR/hcp_fs6/Utah/scene0026020s1r1'
Traceback (most recent call last):
  File "/home/a/arisvoin/edickie/code/ciftify/bin/cifti_vis_func2hcp", line 193, in <module>
    main()
  File "/home/a/arisvoin/edickie/code/ciftify/bin/cifti_vis_func2hcp", line 89, in main
    write_single_qc_page(user_settings, config)
  File "/home/a/arisvoin/edickie/code/ciftify/bin/cifti_vis_func2hcp", line 115, in write_single_qc_page
    generate_qc_page(user_settings, config, qc_dir, scene_dir, qc_html, temp_dir)
  File "/home/a/arisvoin/edickie/code/ciftify/ciftify/utilities.py", line 309, in __exit__
    shutil.rmtree(self.dir)
  File "/home/a/arisvoin/edickie/quarantine/python/2.7.11-Anaconda2-2.5.0/build/lib/python2.7/shutil.py", line 239, in rmtree
    onerror(os.listdir, path, sys.exc_info())
  File "/home/a/arisvoin/edickie/quarantine/python/2.7.11-Anaconda2-2.5.0/build/lib/python2.7/shutil.py", line 237, in rmtree
    names = os.listdir(path)
OSError: [Errno 2] No such file or directory: '/sgfs1/scratch3/a/arisvoin/edickie/CORR/hcp_fs6/Utah/scene0026020s2r1'
Traceback (most recent call last):
  File "/home/a/arisvoin/edickie/code/ciftify/bin/cifti_vis_func2hcp", line 193, in <module>
    main()
  File "/home/a/arisvoin/edickie/code/ciftify/bin/cifti_vis_func2hcp", line 89, in main
    write_single_qc_page(user_settings, config)
  File "/home/a/arisvoin/edickie/code/ciftify/bin/cifti_vis_func2hcp", line 115, in write_single_qc_page
    generate_qc_page(user_settings, config, qc_dir, scene_dir, qc_html, temp_dir)
  File "/home/a/arisvoin/edickie/code/ciftify/ciftify/utilities.py", line 309, in __exit__
    shutil.rmtree(self.dir)
  File "/home/a/arisvoin/edickie/quarantine/python/2.7.11-Anaconda2-2.5.0/build/lib/python2.7/shutil.py", line 252, in rmtree
    onerror(os.remove, fullname, sys.exc_info())
  File "/home/a/arisvoin/edickie/quarantine/python/2.7.11-Anaconda2-2.5.0/build/lib/python2.7/shutil.py", line 250, in rmtree
    os.remove(fullname)
OSError: [Errno 2] No such file or directory: '/sgfs1/scratch3/a/arisvoin/edickie/CORR/hcp_fs6/Utah/scene0026021s2r1/qcfunc2cifti_0026021s2r1.scene'
Traceback (most recent call last):
  File "/home/a/arisvoin/edickie/code/ciftify/bin/cifti_vis_func2hcp", line 193, in <module>
    main()
  File "/home/a/arisvoin/edickie/code/ciftify/bin/cifti_vis_func2hcp", line 89, in main
    write_single_qc_page(user_settings, config)
  File "/home/a/arisvoin/edickie/code/ciftify/bin/cifti_vis_func2hcp", line 115, in write_single_qc_page
    generate_qc_page(user_settings, config, qc_dir, scene_dir, qc_html, temp_dir)
  File "/home/a/arisvoin/edickie/code/ciftify/ciftify/utilities.py", line 309, in __exit__
    shutil.rmtree(self.dir)
  File "/home/a/arisvoin/edickie/quarantine/python/2.7.11-Anaconda2-2.5.0/build/lib/python2.7/shutil.py", line 239, in rmtree
    onerror(os.listdir, path, sys.exc_info())
  File "/home/a/arisvoin/edickie/quarantine/python/2.7.11-Anaconda2-2.5.0/build/lib/python2.7/shutil.py", line 237, in rmtree
    names = os.listdir(path)
OSError: [Errno 2] No such file or directory: '/sgfs1/scratch3/a/arisvoin/edickie/CORR/hcp_fs6/Utah/scene0026022s1r1'
Traceback (most recent call last):
  File "/home/a/arisvoin/edickie/code/ciftify/bin/cifti_vis_func2hcp", line 193, in <module>
    main()
  File "/home/a/arisvoin/edickie/code/ciftify/bin/cifti_vis_func2hcp", line 89, in main
    write_single_qc_page(user_settings, config)
  File "/home/a/arisvoin/edickie/code/ciftify/bin/cifti_vis_func2hcp", line 115, in write_single_qc_page
    generate_qc_page(user_settings, config, qc_dir, scene_dir, qc_html, temp_dir)
  File "/home/a/arisvoin/edickie/code/ciftify/ciftify/utilities.py", line 309, in __exit__
    shutil.rmtree(self.dir)
  File "/home/a/arisvoin/edickie/quarantine/python/2.7.11-Anaconda2-2.5.0/build/lib/python2.7/shutil.py", line 239, in rmtree
    onerror(os.listdir, path, sys.exc_info())
  File "/home/a/arisvoin/edickie/quarantine/python/2.7.11-Anaconda2-2.5.0/build/lib/python2.7/shutil.py", line 237, in rmtree
    names = os.listdir(path)
OSError: [Errno 2] No such file or directory: '/sgfs1/scratch3/a/arisvoin/edickie/CORR/hcp_fs6/Utah/scene0026022s2r1'
Traceback (most recent call last):
  File "/home/a/arisvoin/edickie/code/ciftify/bin/cifti_vis_func2hcp", line 193, in <module>
    main()
  File "/home/a/arisvoin/edickie/code/ciftify/bin/cifti_vis_func2hcp", line 89, in main
    write_single_qc_page(user_settings, config)
  File "/home/a/arisvoin/edickie/code/ciftify/bin/cifti_vis_func2hcp", line 115, in write_single_qc_page
    generate_qc_page(user_settings, config, qc_dir, scene_dir, qc_html, temp_dir)
  File "/home/a/arisvoin/edickie/code/ciftify/ciftify/utilities.py", line 309, in __exit__
    shutil.rmtree(self.dir)
  File "/home/a/arisvoin/edickie/quarantine/python/2.7.11-Anaconda2-2.5.0/build/lib/python2.7/shutil.py", line 239, in rmtree
    onerror(os.listdir, path, sys.exc_info())
  File "/home/a/arisvoin/edickie/quarantine/python/2.7.11-Anaconda2-2.5.0/build/lib/python2.7/shutil.py", line 237, in rmtree
    names = os.listdir(path)
OSError: [Errno 2] No such file or directory: '/sgfs1/scratch3/a/arisvoin/edickie/CORR/hcp_fs6/Utah/scene0026022s2r1'
Traceback (most recent call last):
  File "/home/a/arisvoin/edickie/code/ciftify/bin/cifti_vis_func2hcp", line 193, in <module>
    main()
  File "/home/a/arisvoin/edickie/code/ciftify/bin/cifti_vis_func2hcp", line 89, in main
    write_single_qc_page(user_settings, config)
  File "/home/a/arisvoin/edickie/code/ciftify/bin/cifti_vis_func2hcp", line 115, in write_single_qc_page
    generate_qc_page(user_settings, config, qc_dir, scene_dir, qc_html, temp_dir)
  File "/home/a/arisvoin/edickie/code/ciftify/ciftify/utilities.py", line 309, in __exit__
    shutil.rmtree(self.dir)
  File "/home/a/arisvoin/edickie/quarantine/python/2.7.11-Anaconda2-2.5.0/build/lib/python2.7/shutil.py", line 239, in rmtree
    onerror(os.listdir, path, sys.exc_info())
  File "/home/a/arisvoin/edickie/quarantine/python/2.7.11-Anaconda2-2.5.0/build/lib/python2.7/shutil.py", line 237, in rmtree
    names = os.listdir(path)
OSError: [Errno 2] No such file or directory: '/sgfs1/scratch3/a/arisvoin/edickie/CORR/hcp_fs6/Utah/scene0026023s1r1'
Traceback (most recent call last):
  File "/home/a/arisvoin/edickie/code/ciftify/bin/cifti_vis_func2hcp", line 193, in <module>
    main()
  File "/home/a/arisvoin/edickie/code/ciftify/bin/cifti_vis_func2hcp", line 89, in main
    write_single_qc_page(user_settings, config)
  File "/home/a/arisvoin/edickie/code/ciftify/bin/cifti_vis_func2hcp", line 115, in write_single_qc_page
    generate_qc_page(user_settings, config, qc_dir, scene_dir, qc_html, temp_dir)
  File "/home/a/arisvoin/edickie/code/ciftify/ciftify/utilities.py", line 309, in __exit__
    shutil.rmtree(self.dir)
  File "/home/a/arisvoin/edickie/quarantine/python/2.7.11-Anaconda2-2.5.0/build/lib/python2.7/shutil.py", line 239, in rmtree
    onerror(os.listdir, path, sys.exc_info())
  File "/home/a/arisvoin/edickie/quarantine/python/2.7.11-Anaconda2-2.5.0/build/lib/python2.7/shutil.py", line 237, in rmtree
    names = os.listdir(path)
OSError: [Errno 2] No such file or directory: '/sgfs1/scratch3/a/arisvoin/edickie/CORR/hcp_fs6/Utah/scene0026023s2r1'
Traceback (most recent call last):
  File "/home/a/arisvoin/edickie/code/ciftify/bin/cifti_vis_func2hcp", line 193, in <module>
    main()
  File "/home/a/arisvoin/edickie/code/ciftify/bin/cifti_vis_func2hcp", line 89, in main
    write_single_qc_page(user_settings, config)
  File "/home/a/arisvoin/edickie/code/ciftify/bin/cifti_vis_func2hcp", line 115, in write_single_qc_page
    generate_qc_page(user_settings, config, qc_dir, scene_dir, qc_html, temp_dir)
  File "/home/a/arisvoin/edickie/code/ciftify/ciftify/utilities.py", line 309, in __exit__
    shutil.rmtree(self.dir)
  File "/home/a/arisvoin/edickie/quarantine/python/2.7.11-Anaconda2-2.5.0/build/lib/python2.7/shutil.py", line 239, in rmtree
    onerror(os.listdir, path, sys.exc_info())
  File "/home/a/arisvoin/edickie/quarantine/python/2.7.11-Anaconda2-2.5.0/build/lib/python2.7/shutil.py", line 237, in rmtree
    names = os.listdir(path)
OSError: [Errno 2] No such file or directory: '/sgfs1/scratch3/a/arisvoin/edickie/CORR/hcp_fs6/Utah/scene0026023s2r1'
Traceback (most recent call last):
  File "/home/a/arisvoin/edickie/code/ciftify/bin/cifti_vis_func2hcp", line 193, in <module>
    main()
  File "/home/a/arisvoin/edickie/code/ciftify/bin/cifti_vis_func2hcp", line 89, in main
    write_single_qc_page(user_settings, config)
  File "/home/a/arisvoin/edickie/code/ciftify/bin/cifti_vis_func2hcp", line 115, in write_single_qc_page
    generate_qc_page(user_settings, config, qc_dir, scene_dir, qc_html, temp_dir)
  File "/home/a/arisvoin/edickie/code/ciftify/ciftify/utilities.py", line 309, in __exit__
    shutil.rmtree(self.dir)
  File "/home/a/arisvoin/edickie/quarantine/python/2.7.11-Anaconda2-2.5.0/build/lib/python2.7/shutil.py", line 239, in rmtree
    onerror(os.listdir, path, sys.exc_info())
  File "/home/a/arisvoin/edickie/quarantine/python/2.7.11-Anaconda2-2.5.0/build/lib/python2.7/shutil.py", line 237, in rmtree
    names = os.listdir(path)
OSError: [Errno 2] No such file or directory: '/sgfs1/scratch3/a/arisvoin/edickie/CORR/hcp_fs6/Utah/scene0026024s1r1'
Traceback (most recent call last):
  File "/home/a/arisvoin/edickie/code/ciftify/bin/cifti_vis_func2hcp", line 193, in <module>
    main()
  File "/home/a/arisvoin/edickie/code/ciftify/bin/cifti_vis_func2hcp", line 89, in main
    write_single_qc_page(user_settings, config)
  File "/home/a/arisvoin/edickie/code/ciftify/bin/cifti_vis_func2hcp", line 115, in write_single_qc_page
    generate_qc_page(user_settings, config, qc_dir, scene_dir, qc_html, temp_dir)
  File "/home/a/arisvoin/edickie/code/ciftify/ciftify/utilities.py", line 309, in __exit__
    shutil.rmtree(self.dir)
  File "/home/a/arisvoin/edickie/quarantine/python/2.7.11-Anaconda2-2.5.0/build/lib/python2.7/shutil.py", line 239, in rmtree
    onerror(os.listdir, path, sys.exc_info())
  File "/home/a/arisvoin/edickie/quarantine/python/2.7.11-Anaconda2-2.5.0/build/lib/python2.7/shutil.py", line 237, in rmtree
    names = os.listdir(path)
OSError: [Errno 2] No such file or directory: '/sgfs1/scratch3/a/arisvoin/edickie/CORR/hcp_fs6/Utah/scene0026024s2r1'
Traceback (most recent call last):
  File "/home/a/arisvoin/edickie/code/ciftify/bin/cifti_vis_func2hcp", line 193, in <module>
    main()
  File "/home/a/arisvoin/edickie/code/ciftify/bin/cifti_vis_func2hcp", line 89, in main
    write_single_qc_page(user_settings, config)
  File "/home/a/arisvoin/edickie/code/ciftify/bin/cifti_vis_func2hcp", line 115, in write_single_qc_page
    generate_qc_page(user_settings, config, qc_dir, scene_dir, qc_html, temp_dir)
  File "/home/a/arisvoin/edickie/code/ciftify/ciftify/utilities.py", line 309, in __exit__
    shutil.rmtree(self.dir)
  File "/home/a/arisvoin/edickie/quarantine/python/2.7.11-Anaconda2-2.5.0/build/lib/python2.7/shutil.py", line 252, in rmtree
    onerror(os.remove, fullname, sys.exc_info())
  File "/home/a/arisvoin/edickie/quarantine/python/2.7.11-Anaconda2-2.5.0/build/lib/python2.7/shutil.py", line 250, in rmtree
    os.remove(fullname)
OSError: [Errno 2] No such file or directory: '/sgfs1/scratch3/a/arisvoin/edickie/CORR/hcp_fs6/Utah/scene0026025s2r1/qcfunc2cifti_0026025s2r1.scene'
Traceback (most recent call last):
  File "/home/a/arisvoin/edickie/code/ciftify/bin/cifti_vis_func2hcp", line 193, in <module>
    main()
  File "/home/a/arisvoin/edickie/code/ciftify/bin/cifti_vis_func2hcp", line 89, in main
    write_single_qc_page(user_settings, config)
  File "/home/a/arisvoin/edickie/code/ciftify/bin/cifti_vis_func2hcp", line 115, in write_single_qc_page
    generate_qc_page(user_settings, config, qc_dir, scene_dir, qc_html, temp_dir)
  File "/home/a/arisvoin/edickie/code/ciftify/ciftify/utilities.py", line 309, in __exit__
    shutil.rmtree(self.dir)
  File "/home/a/arisvoin/edickie/quarantine/python/2.7.11-Anaconda2-2.5.0/build/lib/python2.7/shutil.py", line 252, in rmtree
    onerror(os.remove, fullname, sys.exc_info())
  File "/home/a/arisvoin/edickie/quarantine/python/2.7.11-Anaconda2-2.5.0/build/lib/python2.7/shutil.py", line 250, in rmtree
    os.remove(fullname)
OSError: [Errno 2] No such file or directory: '/sgfs1/scratch3/a/arisvoin/edickie/CORR/hcp_fs6/Utah/scene0026026s2r1/qcfunc2cifti_0026026s2r1.scene'
Traceback (most recent call last):
  File "/home/a/arisvoin/edickie/code/ciftify/bin/cifti_vis_func2hcp", line 193, in <module>
    main()
  File "/home/a/arisvoin/edickie/code/ciftify/bin/cifti_vis_func2hcp", line 89, in main
    write_single_qc_page(user_settings, config)
  File "/home/a/arisvoin/edickie/code/ciftify/bin/cifti_vis_func2hcp", line 115, in write_single_qc_page
    generate_qc_page(user_settings, config, qc_dir, scene_dir, qc_html, temp_dir)
  File "/home/a/arisvoin/edickie/code/ciftify/ciftify/utilities.py", line 309, in __exit__
    shutil.rmtree(self.dir)
  File "/home/a/arisvoin/edickie/quarantine/python/2.7.11-Anaconda2-2.5.0/build/lib/python2.7/shutil.py", line 239, in rmtree
    onerror(os.listdir, path, sys.exc_info())
  File "/home/a/arisvoin/edickie/quarantine/python/2.7.11-Anaconda2-2.5.0/build/lib/python2.7/shutil.py", line 237, in rmtree
    names = os.listdir(path)
OSError: [Errno 2] No such file or directory: '/sgfs1/scratch3/a/arisvoin/edickie/CORR/hcp_fs6/Utah/scene0026027s2r1'
Traceback (most recent call last):
  File "/home/a/arisvoin/edickie/code/ciftify/bin/cifti_vis_func2hcp", line 193, in <module>
    main()
  File "/home/a/arisvoin/edickie/code/ciftify/bin/cifti_vis_func2hcp", line 89, in main
    write_single_qc_page(user_settings, config)
  File "/home/a/arisvoin/edickie/code/ciftify/bin/cifti_vis_func2hcp", line 115, in write_single_qc_page
    generate_qc_page(user_settings, config, qc_dir, scene_dir, qc_html, temp_dir)
  File "/home/a/arisvoin/edickie/code/ciftify/ciftify/utilities.py", line 309, in __exit__
    shutil.rmtree(self.dir)
  File "/home/a/arisvoin/edickie/quarantine/python/2.7.11-Anaconda2-2.5.0/build/lib/python2.7/shutil.py", line 252, in rmtree
    onerror(os.remove, fullname, sys.exc_info())
  File "/home/a/arisvoin/edickie/quarantine/python/2.7.11-Anaconda2-2.5.0/build/lib/python2.7/shutil.py", line 250, in rmtree
    os.remove(fullname)
OSError: [Errno 2] No such file or directory: '/sgfs1/scratch3/a/arisvoin/edickie/CORR/hcp_fs6/Utah/scene0026029s2r1/qcfunc2cifti_0026029s2r1.scene'
Traceback (most recent call last):
  File "/home/a/arisvoin/edickie/code/ciftify/bin/cifti_vis_func2hcp", line 193, in <module>
    main()
  File "/home/a/arisvoin/edickie/code/ciftify/bin/cifti_vis_func2hcp", line 89, in main
    write_single_qc_page(user_settings, config)
  File "/home/a/arisvoin/edickie/code/ciftify/bin/cifti_vis_func2hcp", line 115, in write_single_qc_page
    generate_qc_page(user_settings, config, qc_dir, scene_dir, qc_html, temp_dir)
  File "/home/a/arisvoin/edickie/code/ciftify/ciftify/utilities.py", line 309, in __exit__
    shutil.rmtree(self.dir)
  File "/home/a/arisvoin/edickie/quarantine/python/2.7.11-Anaconda2-2.5.0/build/lib/python2.7/shutil.py", line 239, in rmtree
    onerror(os.listdir, path, sys.exc_info())
  File "/home/a/arisvoin/edickie/quarantine/python/2.7.11-Anaconda2-2.5.0/build/lib/python2.7/shutil.py", line 237, in rmtree
    names = os.listdir(path)
OSError: [Errno 2] No such file or directory: '/sgfs1/scratch3/a/arisvoin/edickie/CORR/hcp_fs6/Utah/scene0026030s1r1'
Traceback (most recent call last):
  File "/home/a/arisvoin/edickie/code/ciftify/bin/cifti_vis_func2hcp", line 193, in <module>
    main()
  File "/home/a/arisvoin/edickie/code/ciftify/bin/cifti_vis_func2hcp", line 89, in main
    write_single_qc_page(user_settings, config)
  File "/home/a/arisvoin/edickie/code/ciftify/bin/cifti_vis_func2hcp", line 115, in write_single_qc_page
    generate_qc_page(user_settings, config, qc_dir, scene_dir, qc_html, temp_dir)
  File "/home/a/arisvoin/edickie/code/ciftify/ciftify/utilities.py", line 309, in __exit__
    shutil.rmtree(self.dir)
  File "/home/a/arisvoin/edickie/quarantine/python/2.7.11-Anaconda2-2.5.0/build/lib/python2.7/shutil.py", line 239, in rmtree
    onerror(os.listdir, path, sys.exc_info())
  File "/home/a/arisvoin/edickie/quarantine/python/2.7.11-Anaconda2-2.5.0/build/lib/python2.7/shutil.py", line 237, in rmtree
    names = os.listdir(path)
OSError: [Errno 2] No such file or directory: '/sgfs1/scratch3/a/arisvoin/edickie/CORR/hcp_fs6/Utah/scene0026030s2r1'
Traceback (most recent call last):
  File "/home/a/arisvoin/edickie/code/ciftify/bin/cifti_vis_func2hcp", line 193, in <module>
    main()
  File "/home/a/arisvoin/edickie/code/ciftify/bin/cifti_vis_func2hcp", line 89, in main
    write_single_qc_page(user_settings, config)
  File "/home/a/arisvoin/edickie/code/ciftify/bin/cifti_vis_func2hcp", line 115, in write_single_qc_page
    generate_qc_page(user_settings, config, qc_dir, scene_dir, qc_html, temp_dir)
  File "/home/a/arisvoin/edickie/code/ciftify/ciftify/utilities.py", line 309, in __exit__
    shutil.rmtree(self.dir)
  File "/home/a/arisvoin/edickie/quarantine/python/2.7.11-Anaconda2-2.5.0/build/lib/python2.7/shutil.py", line 239, in rmtree
    onerror(os.listdir, path, sys.exc_info())
  File "/home/a/arisvoin/edickie/quarantine/python/2.7.11-Anaconda2-2.5.0/build/lib/python2.7/shutil.py", line 237, in rmtree
    names = os.listdir(path)
OSError: [Errno 2] No such file or directory: '/sgfs1/scratch3/a/arisvoin/edickie/CORR/hcp_fs6/Utah/scene0026030s2r1'
Traceback (most recent call last):
  File "/home/a/arisvoin/edickie/code/ciftify/bin/cifti_vis_func2hcp", line 193, in <module>
    main()
  File "/home/a/arisvoin/edickie/code/ciftify/bin/cifti_vis_func2hcp", line 89, in main
    write_single_qc_page(user_settings, config)
  File "/home/a/arisvoin/edickie/code/ciftify/bin/cifti_vis_func2hcp", line 115, in write_single_qc_page
    generate_qc_page(user_settings, config, qc_dir, scene_dir, qc_html, temp_dir)
  File "/home/a/arisvoin/edickie/code/ciftify/ciftify/utilities.py", line 309, in __exit__
    shutil.rmtree(self.dir)
  File "/home/a/arisvoin/edickie/quarantine/python/2.7.11-Anaconda2-2.5.0/build/lib/python2.7/shutil.py", line 239, in rmtree
    onerror(os.listdir, path, sys.exc_info())
  File "/home/a/arisvoin/edickie/quarantine/python/2.7.11-Anaconda2-2.5.0/build/lib/python2.7/shutil.py", line 237, in rmtree
    names = os.listdir(path)
OSError: [Errno 2] No such file or directory: '/sgfs1/scratch3/a/arisvoin/edickie/CORR/hcp_fs6/Utah/scene0026031s1r1'
Traceback (most recent call last):
  File "/home/a/arisvoin/edickie/code/ciftify/bin/cifti_vis_func2hcp", line 193, in <module>
    main()
  File "/home/a/arisvoin/edickie/code/ciftify/bin/cifti_vis_func2hcp", line 89, in main
    write_single_qc_page(user_settings, config)
  File "/home/a/arisvoin/edickie/code/ciftify/bin/cifti_vis_func2hcp", line 115, in write_single_qc_page
    generate_qc_page(user_settings, config, qc_dir, scene_dir, qc_html, temp_dir)
  File "/home/a/arisvoin/edickie/code/ciftify/ciftify/utilities.py", line 309, in __exit__
    shutil.rmtree(self.dir)
  File "/home/a/arisvoin/edickie/quarantine/python/2.7.11-Anaconda2-2.5.0/build/lib/python2.7/shutil.py", line 239, in rmtree
    onerror(os.listdir, path, sys.exc_info())
  File "/home/a/arisvoin/edickie/quarantine/python/2.7.11-Anaconda2-2.5.0/build/lib/python2.7/shutil.py", line 237, in rmtree
    names = os.listdir(path)
OSError: [Errno 2] No such file or directory: '/sgfs1/scratch3/a/arisvoin/edickie/CORR/hcp_fs6/Utah/scene0026031s2r1'
Traceback (most recent call last):
  File "/home/a/arisvoin/edickie/code/ciftify/bin/cifti_vis_func2hcp", line 193, in <module>
    main()
  File "/home/a/arisvoin/edickie/code/ciftify/bin/cifti_vis_func2hcp", line 89, in main
    write_single_qc_page(user_settings, config)
  File "/home/a/arisvoin/edickie/code/ciftify/bin/cifti_vis_func2hcp", line 115, in write_single_qc_page
    generate_qc_page(user_settings, config, qc_dir, scene_dir, qc_html, temp_dir)
  File "/home/a/arisvoin/edickie/code/ciftify/ciftify/utilities.py", line 309, in __exit__
    shutil.rmtree(self.dir)
  File "/home/a/arisvoin/edickie/quarantine/python/2.7.11-Anaconda2-2.5.0/build/lib/python2.7/shutil.py", line 239, in rmtree
    onerror(os.listdir, path, sys.exc_info())
  File "/home/a/arisvoin/edickie/quarantine/python/2.7.11-Anaconda2-2.5.0/build/lib/python2.7/shutil.py", line 237, in rmtree
    names = os.listdir(path)
OSError: [Errno 2] No such file or directory: '/sgfs1/scratch3/a/arisvoin/edickie/CORR/hcp_fs6/Utah/scene0026031s2r1'
Traceback (most recent call last):
  File "/home/a/arisvoin/edickie/code/ciftify/bin/cifti_vis_func2hcp", line 193, in <module>
    main()
  File "/home/a/arisvoin/edickie/code/ciftify/bin/cifti_vis_func2hcp", line 89, in main
    write_single_qc_page(user_settings, config)
  File "/home/a/arisvoin/edickie/code/ciftify/bin/cifti_vis_func2hcp", line 115, in write_single_qc_page
    generate_qc_page(user_settings, config, qc_dir, scene_dir, qc_html, temp_dir)
  File "/home/a/arisvoin/edickie/code/ciftify/ciftify/utilities.py", line 309, in __exit__
    shutil.rmtree(self.dir)
  File "/home/a/arisvoin/edickie/quarantine/python/2.7.11-Anaconda2-2.5.0/build/lib/python2.7/shutil.py", line 239, in rmtree
    onerror(os.listdir, path, sys.exc_info())
  File "/home/a/arisvoin/edickie/quarantine/python/2.7.11-Anaconda2-2.5.0/build/lib/python2.7/shutil.py", line 237, in rmtree
    names = os.listdir(path)
OSError: [Errno 2] No such file or directory: '/sgfs1/scratch3/a/arisvoin/edickie/CORR/hcp_fs6/Utah/scene0026032s1r1'
Traceback (most recent call last):
  File "/home/a/arisvoin/edickie/code/ciftify/bin/cifti_vis_func2hcp", line 193, in <module>
    main()
  File "/home/a/arisvoin/edickie/code/ciftify/bin/cifti_vis_func2hcp", line 89, in main
    write_single_qc_page(user_settings, config)
  File "/home/a/arisvoin/edickie/code/ciftify/bin/cifti_vis_func2hcp", line 115, in write_single_qc_page
    generate_qc_page(user_settings, config, qc_dir, scene_dir, qc_html, temp_dir)
  File "/home/a/arisvoin/edickie/code/ciftify/ciftify/utilities.py", line 309, in __exit__
    shutil.rmtree(self.dir)
  File "/home/a/arisvoin/edickie/quarantine/python/2.7.11-Anaconda2-2.5.0/build/lib/python2.7/shutil.py", line 239, in rmtree
    onerror(os.listdir, path, sys.exc_info())
  File "/home/a/arisvoin/edickie/quarantine/python/2.7.11-Anaconda2-2.5.0/build/lib/python2.7/shutil.py", line 237, in rmtree
    names = os.listdir(path)
OSError: [Errno 2] No such file or directory: '/sgfs1/scratch3/a/arisvoin/edickie/CORR/hcp_fs6/Utah/scene0026032s2r1'
Traceback (most recent call last):
  File "/home/a/arisvoin/edickie/code/ciftify/bin/cifti_vis_func2hcp", line 193, in <module>
    main()
  File "/home/a/arisvoin/edickie/code/ciftify/bin/cifti_vis_func2hcp", line 89, in main
    write_single_qc_page(user_settings, config)
  File "/home/a/arisvoin/edickie/code/ciftify/bin/cifti_vis_func2hcp", line 115, in write_single_qc_page
    generate_qc_page(user_settings, config, qc_dir, scene_dir, qc_html, temp_dir)
  File "/home/a/arisvoin/edickie/code/ciftify/ciftify/utilities.py", line 309, in __exit__
    shutil.rmtree(self.dir)
  File "/home/a/arisvoin/edickie/quarantine/python/2.7.11-Anaconda2-2.5.0/build/lib/python2.7/shutil.py", line 252, in rmtree
    onerror(os.remove, fullname, sys.exc_info())
  File "/home/a/arisvoin/edickie/quarantine/python/2.7.11-Anaconda2-2.5.0/build/lib/python2.7/shutil.py", line 250, in rmtree
    os.remove(fullname)
OSError: [Errno 2] No such file or directory: '/sgfs1/scratch3/a/arisvoin/edickie/CORR/hcp_fs6/Utah/scene0026033s2r1/qcfunc2cifti_0026033s2r1.scene'
Traceback (most recent call last):
  File "/home/a/arisvoin/edickie/code/ciftify/bin/cifti_vis_func2hcp", line 193, in <module>
    main()
  File "/home/a/arisvoin/edickie/code/ciftify/bin/cifti_vis_func2hcp", line 89, in main
    write_single_qc_page(user_settings, config)
  File "/home/a/arisvoin/edickie/code/ciftify/bin/cifti_vis_func2hcp", line 115, in write_single_qc_page
    generate_qc_page(user_settings, config, qc_dir, scene_dir, qc_html, temp_dir)
  File "/home/a/arisvoin/edickie/code/ciftify/ciftify/utilities.py", line 309, in __exit__
    shutil.rmtree(self.dir)
  File "/home/a/arisvoin/edickie/quarantine/python/2.7.11-Anaconda2-2.5.0/build/lib/python2.7/shutil.py", line 239, in rmtree
    onerror(os.listdir, path, sys.exc_info())
  File "/home/a/arisvoin/edickie/quarantine/python/2.7.11-Anaconda2-2.5.0/build/lib/python2.7/shutil.py", line 237, in rmtree
    names = os.listdir(path)
OSError: [Errno 2] No such file or directory: '/sgfs1/scratch3/a/arisvoin/edickie/CORR/hcp_fs6/Utah/scene0026034s1r1'
Traceback (most recent call last):
  File "/home/a/arisvoin/edickie/code/ciftify/bin/cifti_vis_func2hcp", line 193, in <module>
    main()
  File "/home/a/arisvoin/edickie/code/ciftify/bin/cifti_vis_func2hcp", line 89, in main
    write_single_qc_page(user_settings, config)
  File "/home/a/arisvoin/edickie/code/ciftify/bin/cifti_vis_func2hcp", line 115, in write_single_qc_page
    generate_qc_page(user_settings, config, qc_dir, scene_dir, qc_html, temp_dir)
  File "/home/a/arisvoin/edickie/code/ciftify/ciftify/utilities.py", line 309, in __exit__
    shutil.rmtree(self.dir)
  File "/home/a/arisvoin/edickie/quarantine/python/2.7.11-Anaconda2-2.5.0/build/lib/python2.7/shutil.py", line 239, in rmtree
    onerror(os.listdir, path, sys.exc_info())
  File "/home/a/arisvoin/edickie/quarantine/python/2.7.11-Anaconda2-2.5.0/build/lib/python2.7/shutil.py", line 237, in rmtree
    names = os.listdir(path)
OSError: [Errno 2] No such file or directory: '/sgfs1/scratch3/a/arisvoin/edickie/CORR/hcp_fs6/Utah/scene0026034s2r1'
Traceback (most recent call last):
  File "/home/a/arisvoin/edickie/code/ciftify/bin/cifti_vis_func2hcp", line 193, in <module>
    main()
  File "/home/a/arisvoin/edickie/code/ciftify/bin/cifti_vis_func2hcp", line 89, in main
    write_single_qc_page(user_settings, config)
  File "/home/a/arisvoin/edickie/code/ciftify/bin/cifti_vis_func2hcp", line 115, in write_single_qc_page
    generate_qc_page(user_settings, config, qc_dir, scene_dir, qc_html, temp_dir)
  File "/home/a/arisvoin/edickie/code/ciftify/ciftify/utilities.py", line 309, in __exit__
    shutil.rmtree(self.dir)
  File "/home/a/arisvoin/edickie/quarantine/python/2.7.11-Anaconda2-2.5.0/build/lib/python2.7/shutil.py", line 239, in rmtree
    onerror(os.listdir, path, sys.exc_info())
  File "/home/a/arisvoin/edickie/quarantine/python/2.7.11-Anaconda2-2.5.0/build/lib/python2.7/shutil.py", line 237, in rmtree
    names = os.listdir(path)
OSError: [Errno 2] No such file or directory: '/sgfs1/scratch3/a/arisvoin/edickie/CORR/hcp_fs6/Utah/scene0026034s2r1'
Traceback (most recent call last):
  File "/home/a/arisvoin/edickie/code/ciftify/bin/cifti_vis_func2hcp", line 193, in <module>
    main()
  File "/home/a/arisvoin/edickie/code/ciftify/bin/cifti_vis_func2hcp", line 89, in main
    write_single_qc_page(user_settings, config)
  File "/home/a/arisvoin/edickie/code/ciftify/bin/cifti_vis_func2hcp", line 115, in write_single_qc_page
    generate_qc_page(user_settings, config, qc_dir, scene_dir, qc_html, temp_dir)
  File "/home/a/arisvoin/edickie/code/ciftify/ciftify/utilities.py", line 309, in __exit__
    shutil.rmtree(self.dir)
  File "/home/a/arisvoin/edickie/quarantine/python/2.7.11-Anaconda2-2.5.0/build/lib/python2.7/shutil.py", line 239, in rmtree
    onerror(os.listdir, path, sys.exc_info())
  File "/home/a/arisvoin/edickie/quarantine/python/2.7.11-Anaconda2-2.5.0/build/lib/python2.7/shutil.py", line 237, in rmtree
    names = os.listdir(path)
OSError: [Errno 2] No such file or directory: '/sgfs1/scratch3/a/arisvoin/edickie/CORR/hcp_fs6/Utah/scene0026035s1r1'
Traceback (most recent call last):
  File "/home/a/arisvoin/edickie/code/ciftify/bin/cifti_vis_func2hcp", line 193, in <module>
    main()
  File "/home/a/arisvoin/edickie/code/ciftify/bin/cifti_vis_func2hcp", line 89, in main
    write_single_qc_page(user_settings, config)
  File "/home/a/arisvoin/edickie/code/ciftify/bin/cifti_vis_func2hcp", line 115, in write_single_qc_page
    generate_qc_page(user_settings, config, qc_dir, scene_dir, qc_html, temp_dir)
  File "/home/a/arisvoin/edickie/code/ciftify/ciftify/utilities.py", line 309, in __exit__
    shutil.rmtree(self.dir)
  File "/home/a/arisvoin/edickie/quarantine/python/2.7.11-Anaconda2-2.5.0/build/lib/python2.7/shutil.py", line 239, in rmtree
    onerror(os.listdir, path, sys.exc_info())
  File "/home/a/arisvoin/edickie/quarantine/python/2.7.11-Anaconda2-2.5.0/build/lib/python2.7/shutil.py", line 237, in rmtree
    names = os.listdir(path)
OSError: [Errno 2] No such file or directory: '/sgfs1/scratch3/a/arisvoin/edickie/CORR/hcp_fs6/Utah/scene0026035s2r1'
Traceback (most recent call last):
  File "/home/a/arisvoin/edickie/code/ciftify/bin/cifti_vis_func2hcp", line 193, in <module>
    main()
  File "/home/a/arisvoin/edickie/code/ciftify/bin/cifti_vis_func2hcp", line 89, in main
    write_single_qc_page(user_settings, config)
  File "/home/a/arisvoin/edickie/code/ciftify/bin/cifti_vis_func2hcp", line 115, in write_single_qc_page
    generate_qc_page(user_settings, config, qc_dir, scene_dir, qc_html, temp_dir)
  File "/home/a/arisvoin/edickie/code/ciftify/ciftify/utilities.py", line 309, in __exit__
    shutil.rmtree(self.dir)
  File "/home/a/arisvoin/edickie/quarantine/python/2.7.11-Anaconda2-2.5.0/build/lib/python2.7/shutil.py", line 252, in rmtree
    onerror(os.remove, fullname, sys.exc_info())
  File "/home/a/arisvoin/edickie/quarantine/python/2.7.11-Anaconda2-2.5.0/build/lib/python2.7/shutil.py", line 250, in rmtree
    os.remove(fullname)
OSError: [Errno 2] No such file or directory: '/sgfs1/scratch3/a/arisvoin/edickie/CORR/hcp_fs6/Utah/scene0026037s2r1/qcfunc2cifti_0026037s2r1.scene'
Traceback (most recent call last):
  File "/home/a/arisvoin/edickie/code/ciftify/bin/cifti_vis_func2hcp", line 193, in <module>
    main()
  File "/home/a/arisvoin/edickie/code/ciftify/bin/cifti_vis_func2hcp", line 89, in main
    write_single_qc_page(user_settings, config)
  File "/home/a/arisvoin/edickie/code/ciftify/bin/cifti_vis_func2hcp", line 115, in write_single_qc_page
    generate_qc_page(user_settings, config, qc_dir, scene_dir, qc_html, temp_dir)
  File "/home/a/arisvoin/edickie/code/ciftify/ciftify/utilities.py", line 309, in __exit__
    shutil.rmtree(self.dir)
  File "/home/a/arisvoin/edickie/quarantine/python/2.7.11-Anaconda2-2.5.0/build/lib/python2.7/shutil.py", line 239, in rmtree
    onerror(os.listdir, path, sys.exc_info())
  File "/home/a/arisvoin/edickie/quarantine/python/2.7.11-Anaconda2-2.5.0/build/lib/python2.7/shutil.py", line 237, in rmtree
    names = os.listdir(path)
OSError: [Errno 2] No such file or directory: '/sgfs1/scratch3/a/arisvoin/edickie/CORR/hcp_fs6/Utah/scene0026038s1r1'
Traceback (most recent call last):
  File "/home/a/arisvoin/edickie/code/ciftify/bin/cifti_vis_func2hcp", line 193, in <module>
    main()
  File "/home/a/arisvoin/edickie/code/ciftify/bin/cifti_vis_func2hcp", line 89, in main
    write_single_qc_page(user_settings, config)
  File "/home/a/arisvoin/edickie/code/ciftify/bin/cifti_vis_func2hcp", line 115, in write_single_qc_page
    generate_qc_page(user_settings, config, qc_dir, scene_dir, qc_html, temp_dir)
  File "/home/a/arisvoin/edickie/code/ciftify/ciftify/utilities.py", line 309, in __exit__
    shutil.rmtree(self.dir)
  File "/home/a/arisvoin/edickie/quarantine/python/2.7.11-Anaconda2-2.5.0/build/lib/python2.7/shutil.py", line 239, in rmtree
    onerror(os.listdir, path, sys.exc_info())
  File "/home/a/arisvoin/edickie/quarantine/python/2.7.11-Anaconda2-2.5.0/build/lib/python2.7/shutil.py", line 237, in rmtree
    names = os.listdir(path)
OSError: [Errno 2] No such file or directory: '/sgfs1/scratch3/a/arisvoin/edickie/CORR/hcp_fs6/Utah/scene0026038s2r1'
Traceback (most recent call last):
  File "/home/a/arisvoin/edickie/code/ciftify/bin/cifti_vis_func2hcp", line 193, in <module>
    main()
  File "/home/a/arisvoin/edickie/code/ciftify/bin/cifti_vis_func2hcp", line 89, in main
    write_single_qc_page(user_settings, config)
  File "/home/a/arisvoin/edickie/code/ciftify/bin/cifti_vis_func2hcp", line 115, in write_single_qc_page
    generate_qc_page(user_settings, config, qc_dir, scene_dir, qc_html, temp_dir)
  File "/home/a/arisvoin/edickie/code/ciftify/ciftify/utilities.py", line 309, in __exit__
    shutil.rmtree(self.dir)
  File "/home/a/arisvoin/edickie/quarantine/python/2.7.11-Anaconda2-2.5.0/build/lib/python2.7/shutil.py", line 239, in rmtree
    onerror(os.listdir, path, sys.exc_info())
  File "/home/a/arisvoin/edickie/quarantine/python/2.7.11-Anaconda2-2.5.0/build/lib/python2.7/shutil.py", line 237, in rmtree
    names = os.listdir(path)
OSError: [Errno 2] No such file or directory: '/sgfs1/scratch3/a/arisvoin/edickie/CORR/hcp_fs6/Utah/scene0026038s2r1'
Traceback (most recent call last):
  File "/home/a/arisvoin/edickie/code/ciftify/bin/cifti_vis_func2hcp", line 193, in <module>
    main()
  File "/home/a/arisvoin/edickie/code/ciftify/bin/cifti_vis_func2hcp", line 89, in main
    write_single_qc_page(user_settings, config)
  File "/home/a/arisvoin/edickie/code/ciftify/bin/cifti_vis_func2hcp", line 115, in write_single_qc_page
    generate_qc_page(user_settings, config, qc_dir, scene_dir, qc_html, temp_dir)
  File "/home/a/arisvoin/edickie/code/ciftify/ciftify/utilities.py", line 309, in __exit__
    shutil.rmtree(self.dir)
  File "/home/a/arisvoin/edickie/quarantine/python/2.7.11-Anaconda2-2.5.0/build/lib/python2.7/shutil.py", line 239, in rmtree
    onerror(os.listdir, path, sys.exc_info())
  File "/home/a/arisvoin/edickie/quarantine/python/2.7.11-Anaconda2-2.5.0/build/lib/python2.7/shutil.py", line 237, in rmtree
    names = os.listdir(path)
OSError: [Errno 2] No such file or directory: '/sgfs1/scratch3/a/arisvoin/edickie/CORR/hcp_fs6/Utah/scene0026039s1r1'
Traceback (most recent call last):
  File "/home/a/arisvoin/edickie/code/ciftify/bin/cifti_vis_func2hcp", line 193, in <module>
    main()
  File "/home/a/arisvoin/edickie/code/ciftify/bin/cifti_vis_func2hcp", line 89, in main
    write_single_qc_page(user_settings, config)
  File "/home/a/arisvoin/edickie/code/ciftify/bin/cifti_vis_func2hcp", line 115, in write_single_qc_page
    generate_qc_page(user_settings, config, qc_dir, scene_dir, qc_html, temp_dir)
  File "/home/a/arisvoin/edickie/code/ciftify/ciftify/utilities.py", line 309, in __exit__
    shutil.rmtree(self.dir)
  File "/home/a/arisvoin/edickie/quarantine/python/2.7.11-Anaconda2-2.5.0/build/lib/python2.7/shutil.py", line 239, in rmtree
    onerror(os.listdir, path, sys.exc_info())
  File "/home/a/arisvoin/edickie/quarantine/python/2.7.11-Anaconda2-2.5.0/build/lib/python2.7/shutil.py", line 237, in rmtree
    names = os.listdir(path)
OSError: [Errno 2] No such file or directory: '/sgfs1/scratch3/a/arisvoin/edickie/CORR/hcp_fs6/Utah/scene0026039s2r1'
Traceback (most recent call last):
  File "/home/a/arisvoin/edickie/code/ciftify/bin/cifti_vis_func2hcp", line 193, in <module>
    main()
  File "/home/a/arisvoin/edickie/code/ciftify/bin/cifti_vis_func2hcp", line 89, in main
    write_single_qc_page(user_settings, config)
  File "/home/a/arisvoin/edickie/code/ciftify/bin/cifti_vis_func2hcp", line 115, in write_single_qc_page
    generate_qc_page(user_settings, config, qc_dir, scene_dir, qc_html, temp_dir)
  File "/home/a/arisvoin/edickie/code/ciftify/ciftify/utilities.py", line 309, in __exit__
    shutil.rmtree(self.dir)
  File "/home/a/arisvoin/edickie/quarantine/python/2.7.11-Anaconda2-2.5.0/build/lib/python2.7/shutil.py", line 239, in rmtree
    onerror(os.listdir, path, sys.exc_info())
  File "/home/a/arisvoin/edickie/quarantine/python/2.7.11-Anaconda2-2.5.0/build/lib/python2.7/shutil.py", line 237, in rmtree
    names = os.listdir(path)
OSError: [Errno 2] No such file or directory: '/sgfs1/scratch3/a/arisvoin/edickie/CORR/hcp_fs6/Utah/scene0026040s2r1'
Traceback (most recent call last):
  File "/home/a/arisvoin/edickie/code/ciftify/bin/cifti_vis_func2hcp", line 193, in <module>
    main()
  File "/home/a/arisvoin/edickie/code/ciftify/bin/cifti_vis_func2hcp", line 89, in main
    write_single_qc_page(user_settings, config)
  File "/home/a/arisvoin/edickie/code/ciftify/bin/cifti_vis_func2hcp", line 115, in write_single_qc_page
    generate_qc_page(user_settings, config, qc_dir, scene_dir, qc_html, temp_dir)
  File "/home/a/arisvoin/edickie/code/ciftify/ciftify/utilities.py", line 309, in __exit__
    shutil.rmtree(self.dir)
  File "/home/a/arisvoin/edickie/quarantine/python/2.7.11-Anaconda2-2.5.0/build/lib/python2.7/shutil.py", line 239, in rmtree
    onerror(os.listdir, path, sys.exc_info())
  File "/home/a/arisvoin/edickie/quarantine/python/2.7.11-Anaconda2-2.5.0/build/lib/python2.7/shutil.py", line 237, in rmtree
    names = os.listdir(path)
OSError: [Errno 2] No such file or directory: '/sgfs1/scratch3/a/arisvoin/edickie/CORR/hcp_fs6/Utah/scene0026041s1r1'
Traceback (most recent call last):
  File "/home/a/arisvoin/edickie/code/ciftify/bin/cifti_vis_func2hcp", line 193, in <module>
    main()
  File "/home/a/arisvoin/edickie/code/ciftify/bin/cifti_vis_func2hcp", line 89, in main
    write_single_qc_page(user_settings, config)
  File "/home/a/arisvoin/edickie/code/ciftify/bin/cifti_vis_func2hcp", line 115, in write_single_qc_page
    generate_qc_page(user_settings, config, qc_dir, scene_dir, qc_html, temp_dir)
  File "/home/a/arisvoin/edickie/code/ciftify/ciftify/utilities.py", line 309, in __exit__
    shutil.rmtree(self.dir)
  File "/home/a/arisvoin/edickie/quarantine/python/2.7.11-Anaconda2-2.5.0/build/lib/python2.7/shutil.py", line 239, in rmtree
    onerror(os.listdir, path, sys.exc_info())
  File "/home/a/arisvoin/edickie/quarantine/python/2.7.11-Anaconda2-2.5.0/build/lib/python2.7/shutil.py", line 237, in rmtree
    names = os.listdir(path)
OSError: [Errno 2] No such file or directory: '/sgfs1/scratch3/a/arisvoin/edickie/CORR/hcp_fs6/Utah/scene0026041s2r1'
Traceback (most recent call last):
  File "/home/a/arisvoin/edickie/code/ciftify/bin/cifti_vis_func2hcp", line 193, in <module>
    main()
  File "/home/a/arisvoin/edickie/code/ciftify/bin/cifti_vis_func2hcp", line 89, in main
    write_single_qc_page(user_settings, config)
  File "/home/a/arisvoin/edickie/code/ciftify/bin/cifti_vis_func2hcp", line 115, in write_single_qc_page
    generate_qc_page(user_settings, config, qc_dir, scene_dir, qc_html, temp_dir)
  File "/home/a/arisvoin/edickie/code/ciftify/ciftify/utilities.py", line 309, in __exit__
    shutil.rmtree(self.dir)
  File "/home/a/arisvoin/edickie/quarantine/python/2.7.11-Anaconda2-2.5.0/build/lib/python2.7/shutil.py", line 239, in rmtree
    onerror(os.listdir, path, sys.exc_info())
  File "/home/a/arisvoin/edickie/quarantine/python/2.7.11-Anaconda2-2.5.0/build/lib/python2.7/shutil.py", line 237, in rmtree
    names = os.listdir(path)
OSError: [Errno 2] No such file or directory: '/sgfs1/scratch3/a/arisvoin/edickie/CORR/hcp_fs6/Utah/scene0026041s2r1'
Traceback (most recent call last):
  File "/home/a/arisvoin/edickie/code/ciftify/bin/cifti_vis_func2hcp", line 193, in <module>
    main()
  File "/home/a/arisvoin/edickie/code/ciftify/bin/cifti_vis_func2hcp", line 89, in main
    write_single_qc_page(user_settings, config)
  File "/home/a/arisvoin/edickie/code/ciftify/bin/cifti_vis_func2hcp", line 115, in write_single_qc_page
    generate_qc_page(user_settings, config, qc_dir, scene_dir, qc_html, temp_dir)
  File "/home/a/arisvoin/edickie/code/ciftify/ciftify/utilities.py", line 309, in __exit__
    shutil.rmtree(self.dir)
  File "/home/a/arisvoin/edickie/quarantine/python/2.7.11-Anaconda2-2.5.0/build/lib/python2.7/shutil.py", line 256, in rmtree
    onerror(os.rmdir, path, sys.exc_info())
  File "/home/a/arisvoin/edickie/quarantine/python/2.7.11-Anaconda2-2.5.0/build/lib/python2.7/shutil.py", line 254, in rmtree
    os.rmdir(path)
OSError: [Errno 2] No such file or directory: '/sgfs1/scratch3/a/arisvoin/edickie/CORR/hcp_fs6/Utah/scene0026042s2r1'
Traceback (most recent call last):
  File "/home/a/arisvoin/edickie/code/ciftify/bin/cifti_vis_func2hcp", line 193, in <module>
    main()
  File "/home/a/arisvoin/edickie/code/ciftify/bin/cifti_vis_func2hcp", line 89, in main
    write_single_qc_page(user_settings, config)
  File "/home/a/arisvoin/edickie/code/ciftify/bin/cifti_vis_func2hcp", line 115, in write_single_qc_page
    generate_qc_page(user_settings, config, qc_dir, scene_dir, qc_html, temp_dir)
  File "/home/a/arisvoin/edickie/code/ciftify/ciftify/utilities.py", line 309, in __exit__
    shutil.rmtree(self.dir)
  File "/home/a/arisvoin/edickie/quarantine/python/2.7.11-Anaconda2-2.5.0/build/lib/python2.7/shutil.py", line 239, in rmtree
    onerror(os.listdir, path, sys.exc_info())
  File "/home/a/arisvoin/edickie/quarantine/python/2.7.11-Anaconda2-2.5.0/build/lib/python2.7/shutil.py", line 237, in rmtree
    names = os.listdir(path)
OSError: [Errno 2] No such file or directory: '/sgfs1/scratch3/a/arisvoin/edickie/CORR/hcp_fs6/Utah/scene0026043s2r1'
Traceback (most recent call last):
  File "/home/a/arisvoin/edickie/code/ciftify/bin/cifti_vis_func2hcp", line 193, in <module>
    main()
  File "/home/a/arisvoin/edickie/code/ciftify/bin/cifti_vis_func2hcp", line 89, in main
    write_single_qc_page(user_settings, config)
  File "/home/a/arisvoin/edickie/code/ciftify/bin/cifti_vis_func2hcp", line 115, in write_single_qc_page
    generate_qc_page(user_settings, config, qc_dir, scene_dir, qc_html, temp_dir)
  File "/home/a/arisvoin/edickie/code/ciftify/ciftify/utilities.py", line 309, in __exit__
    shutil.rmtree(self.dir)
  File "/home/a/arisvoin/edickie/quarantine/python/2.7.11-Anaconda2-2.5.0/build/lib/python2.7/shutil.py", line 239, in rmtree
    onerror(os.listdir, path, sys.exc_info())
  File "/home/a/arisvoin/edickie/quarantine/python/2.7.11-Anaconda2-2.5.0/build/lib/python2.7/shutil.py", line 237, in rmtree
    names = os.listdir(path)
OSError: [Errno 2] No such file or directory: '/sgfs1/scratch3/a/arisvoin/edickie/CORR/hcp_fs6/Utah/scene0026043s2r1'
Cleaning up ramdisk directory /dev/shm/tmp.HeRnAM on Sun Apr 30 19:07:41 EDT 2017
done at Sun Apr 30 19:07:41 EDT 2017
----------------------------------------
Begin PBS Epilogue Sun Apr 30 19:07:46 EDT 2017 1493593666
Job ID:		41981486.gpc-sched-ib0
Username:	edickie
Group:		arisvoin
Job Name:	qcRSNUtah
Session:	14239
Limits:		neednodes=1:ppn=8,nodes=1:ppn=8,walltime=08:00:00
Resources:	cput=03:44:58,mem=3709076kb,vmem=8463552kb,walltime=00:57:24
Queue:		batch_ib
Account:		
Nodes:	gpc-f124n049-ib0
Killing leftovers...

End PBS Epilogue Sun Apr 30 19:07:48 EDT 2017 1493593668
----------------------------------------
