"SUBID","SESSION","FIQ","VIQ","PIQ","BMI","RESTING_STATE_INSTRUCTION","VISUAL_STIMULATION_CONDITION","RETEST_DESIGN","PRECEDING_CONDITION","RETEST_DURATION","RETEST_UNITS","TIME_OF_DAY","SEASON","SATIETY","LMP","HANDEDNESS","AGE_AT_SCAN_1","SEX","DSM_IV_TR","anat_id","rest_id","GROUP","input_path"
25382,"Retest_3","#","#","#","#","#","#","#",0,"450","m",4,"#",0,"#","#",69,"1","Mild cognitive impairment","0025382s1r1","0025382s1r4","MCI","0025382/session_1/rest_4/rest.nii.gz"
25385,"Retest_3","#","#","#","#","#","#","#",0,"450","m",4,"#",0,"#","#",69,"2","Mild cognitive impairment","0025385s1r1","0025385s1r4","MCI","0025385/session_1/rest_4/rest.nii.gz"
25363,"Retest_1","#","#","#","#","#","#","#",0,"150","m",3,"#",0,"#","#",71,"1","Mild cognitive impairment","0025363s1r1","0025363s1r2","MCI","0025363/session_1/rest_2/rest.nii.gz"
25367,"Baseline","#","#","#","#","Keep your eyes closed without falling asleep and do not think of anything in particular.","4","2",0,"#","#",2,"3",0,"0","#",68,"1","Mild cognitive impairment","0025367s1r1","0025367s1r1","MCI","0025367/session_1/rest_1/rest.nii.gz"
25365,"Retest_2","#","#","#","#","#","#","#",0,"300","m",3,"#",1,"#","#",73,"1","Mild cognitive impairment","0025365s1r1","0025365s1r3","MCI","0025365/session_1/rest_3/rest.nii.gz"
25366,"Retest_3","#","#","#","#","#","#","#",0,"450","m",4,"#",0,"#","#",74,"1","Mild cognitive impairment","0025366s1r1","0025366s1r4","MCI","0025366/session_1/rest_4/rest.nii.gz"
25364,"Retest_1","#","#","#","#","#","#","#",0,"150","m",3,"#",0,"#","#",72,"2","Mild cognitive impairment","0025364s1r1","0025364s1r2","MCI","0025364/session_1/rest_2/rest.nii.gz"
25381,"Retest_2","#","#","#","#","#","#","#",0,"300","m",3,"#",1,"#","#",70,"1","Mild cognitive impairment","0025381s1r1","0025381s1r3","MCI","0025381/session_1/rest_3/rest.nii.gz"
25375,"Baseline","#","#","#","#","Keep your eyes closed without falling asleep and do not think of anything in particular.","4","2",0,"#","#",2,"3",0,"0","#",69,"1","#","0025375s1r1","0025375s1r1","OlderAdult","0025375/session_1/rest_1/rest.nii.gz"
25374,"Baseline","#","#","#","#","Keep your eyes closed without falling asleep and do not think of anything in particular.","4","2",0,"#","#",2,"3",0,"-1","#",69,"2","#","0025374s1r1","0025374s1r1","OlderAdult","0025374/session_1/rest_1/rest.nii.gz"
25376,"Retest_2","#","#","#","#","#","#","#",0,"300","m",3,"#",1,"#","#",59,"2","#","0025376s1r1","0025376s1r3","OlderAdult","0025376/session_1/rest_3/rest.nii.gz"
25369,"Retest_3","#","#","#","#","#","#","#",0,"450","m",4,"#",0,"#","#",67,"2","#","0025369s1r1","0025369s1r4","OlderAdult","0025369/session_1/rest_4/rest.nii.gz"
25372,"Retest_2","#","#","#","#","#","#","#",0,"300","m",4,"#",1,"#","#",70,"2","#","0025372s1r1","0025372s1r3","OlderAdult","0025372/session_1/rest_3/rest.nii.gz"
25373,"Baseline","#","#","#","#","Keep your eyes closed without falling asleep and do not think of anything in particular.","4","2",0,"#","#",2,"3",0,"0","#",67,"1","#","0025373s1r1","0025373s1r1","OlderAdult","0025373/session_1/rest_1/rest.nii.gz"
25380,"Retest_1","#","#","#","#","#","#","#",0,"150","m",3,"#",0,"#","#",55,"2","#","0025380s1r1","0025380s1r2","OlderAdult","0025380/session_1/rest_2/rest.nii.gz"
25370,"Retest_3","#","#","#","#","#","#","#",0,"450","m",4,"#",0,"#","#",71,"2","#","0025370s1r1","0025370s1r4","OlderAdult","0025370/session_1/rest_4/rest.nii.gz"
25399,"Retest_1","#","#","#","#","#","#","#",0,"150","m",3,"#",0,"#","#",20,"1","#","0025399s1r1","0025399s1r2","YoungerAdult","0025399/session_1/rest_2/rest.nii.gz"
25393,"Baseline","#","#","#","#","Keep your eyes closed without falling asleep and do not think of anything in particular.","4","2",0,"#","#",2,"2",0,"-1","#",22,"2","#","0025393s1r1","0025393s1r1","YoungerAdult","0025393/session_1/rest_1/rest.nii.gz"
25390,"Baseline","#","#","#","#","Keep your eyes closed without falling asleep and do not think of anything in particular.","4","2",0,"#","#",2,"2",0,"-1","#",25,"2","#","0025390s1r1","0025390s1r1","YoungerAdult","0025390/session_1/rest_1/rest.nii.gz"
25387,"Retest_3","#","#","#","#","#","#","#",0,"450","m",4,"#",0,"#","#",28,"2","#","0025387s1r1","0025387s1r4","YoungerAdult","0025387/session_1/rest_4/rest.nii.gz"
25388,"Baseline","#","#","#","#","Keep your eyes closed without falling asleep and do not think of anything in particular.","4","2",0,"#","#",2,"2",0,"0","#",20,"1","#","0025388s1r1","0025388s1r1","YoungerAdult","0025388/session_1/rest_1/rest.nii.gz"
25401,"Retest_3","#","#","#","#","#","#","#",0,"450","m",4,"#",0,"#","#",21,"1","#","0025401s1r1","0025401s1r4","YoungerAdult","0025401/session_1/rest_4/rest.nii.gz"
25391,"Retest_1","#","#","#","#","#","#","#",0,"150","m",2,"#",0,"#","#",22,"1","#","0025391s1r1","0025391s1r2","YoungerAdult","0025391/session_1/rest_2/rest.nii.gz"
25392,"Retest_1","#","#","#","#","#","#","#",0,"150","m",3,"#",0,"#","#",24,"1","#","0025392s1r1","0025392s1r2","YoungerAdult","0025392/session_1/rest_2/rest.nii.gz"
