"SUBID","SESSION","RETEST_DESIGN","PRECEDING_CONDITION","RETEST_DURATION","RETEST_UNITS","TIME_OF_DAY","SEASON","SATIETY","LMP","HANDEDNESS","EYE_STATUS_AT_REST_SCAN","AGE_AT_SCAN_1","SEX","DSM_IV_TR","FIQ","VIQ","PIQ","BMI","SELF_HW","RESTING_STATE_INSTRUCTION","VISUAL_STIMULATION_CONDITION","anat_id","rest_id","input_path"
25163,"Retest_1","#",1,"22","m",3,2,0,0,"#","open",21.15,"2","#",120,"118","119","20.62","1","YOU'RE DOING A GREAT JOB! FOR THE NEXT FEW MINUTES WE WOULD LIKE YOU TO KEEP YOUR EYES OPEN, RELAX AND REMAIN STILL.","5","0025163s1r1","0025163s1r2","0025163/session_1/rest_2/rest.nii.gz"
25034,"Retest_3","#",0,"23","m",4,2,0,0,"#","open",26.17,"2","#",114,"117","108","29.12","1","YOU'RE DOING A GREAT JOB! FOR THE NEXT FEW MINUTES WE WOULD LIKE YOU TO KEEP YOUR EYES OPEN, RELAX AND REMAIN STILL.","5","0025034s2r1","0025034s2r2","0025034/session_2/rest_2/rest.nii.gz"
25139,"Retest_1","#",0,"23","m",4,2,0,0,"#","open",25.34,"2","#",115,"109","118","#","0","YOU'RE DOING A GREAT JOB! FOR THE NEXT FEW MINUTES WE WOULD LIKE YOU TO KEEP YOUR EYES OPEN, RELAX AND REMAIN STILL.","5","0025139s1r1","0025139s1r2","0025139/session_1/rest_2/rest.nii.gz"
25133,"Baseline","1",0,"#","#",4,1,0,0,"#","closed",38.56,"1","#",105,"91","119","22.19","1","YOU'RE DOING A GREAT JOB! FOR THE NEXT FEW MINUTES WE WOULD LIKE YOU TO KEEP YOUR EYES OPEN, RELAX AND REMAIN STILL.","5","0025133s1r1","0025133s1r1","0025133/session_1/rest_1/rest.nii.gz"
25171,"Baseline","1",0,"#","#",4,1,0,0,"#","open",31.69,"2","#",101,"99","103","24.39","1","YOU'RE DOING A GREAT JOB! FOR THE NEXT FEW MINUTES WE WOULD LIKE YOU TO KEEP YOUR EYES OPEN, RELAX AND REMAIN STILL.","5","0025171s1r1","0025171s1r1","0025171/session_1/rest_1/rest.nii.gz"
25100,"Retest_1","#",0,"22","m",3,2,0,0,"#","closed",14.48,"1","#",111,"113","106","23.77","0","YOU'RE DOING A GREAT JOB! FOR THE NEXT FEW MINUTES WE WOULD LIKE YOU TO KEEP YOUR EYES OPEN, RELAX AND REMAIN STILL.","5","0025100s1r1","0025100s1r2","0025100/session_1/rest_2/rest.nii.gz"
25128,"Retest_1","#",0,"23","m",4,1,0,0,"#","closed",22.76,"2","#",119,"129","106","22.51","1","YOU'RE DOING A GREAT JOB! FOR THE NEXT FEW MINUTES WE WOULD LIKE YOU TO KEEP YOUR EYES OPEN, RELAX AND REMAIN STILL.","5","0025128s1r1","0025128s1r2","0025128/session_1/rest_2/rest.nii.gz"
25068,"Baseline","1",0,"#","#",3,1,0,0,"#","open",9.81,"2","#",101,"109","93","#","0","YOU'RE DOING A GREAT JOB! FOR THE NEXT FEW MINUTES WE WOULD LIKE YOU TO KEEP YOUR EYES OPEN, RELAX AND REMAIN STILL.","5","0025068s1r1","0025068s1r1","0025068/session_1/rest_1/rest.nii.gz"
25017,"Retest_3","#",1,"22","m",3,1,0,0,"#","open",7.63,"1","#",111,"110","108","#","0","YOU'RE DOING A GREAT JOB! FOR THE NEXT FEW MINUTES WE WOULD LIKE YOU TO KEEP YOUR EYES OPEN, RELAX AND REMAIN STILL.","5","0025017s2r1","0025017s2r2","0025017/session_2/rest_2/rest.nii.gz"
25164,"Baseline","1",0,"#","#",3,2,0,0,"#","open",20.56,"2","#",113,"107","118","22.8","1","YOU'RE DOING A GREAT JOB! FOR THE NEXT FEW MINUTES WE WOULD LIKE YOU TO KEEP YOUR EYES OPEN, RELAX AND REMAIN STILL.","5","0025164s1r1","0025164s1r1","0025164/session_1/rest_1/rest.nii.gz"
25049,"Retest_2","#",0,"154","d",3,1,0,0,"#","open",30.08,"2","#",104,"103","104","24.33","1","YOU'RE DOING A GREAT JOB! FOR THE NEXT FEW MINUTES WE WOULD LIKE YOU TO KEEP YOUR EYES OPEN, RELAX AND REMAIN STILL.","5","0025049s2r1","0025049s2r1","0025049/session_2/rest_1/rest.nii.gz"
25104,"Baseline","1",0,"#","#",3,3,0,0,"#","closed",15.21,"1","#",82,"76","92","#","0","YOU'RE DOING A GREAT JOB! FOR THE NEXT FEW MINUTES WE WOULD LIKE YOU TO KEEP YOUR EYES OPEN, RELAX AND REMAIN STILL.","5","0025104s1r1","0025104s1r1","0025104/session_1/rest_1/rest.nii.gz"
25018,"Retest_1","#",1,"24","m",3,3,0,0,"#","open",13.28,"2","#",87,"93","86","18.19","0","YOU'RE DOING A GREAT JOB! FOR THE NEXT FEW MINUTES WE WOULD LIKE YOU TO KEEP YOUR EYES OPEN, RELAX AND REMAIN STILL.","5","0025018s1r1","0025018s1r2","0025018/session_1/rest_2/rest.nii.gz"
25145,"Baseline","1",0,"#","#",4,3,0,0,"#","open",28.2,"2","#",103,"104","102","20.78","1","YOU'RE DOING A GREAT JOB! FOR THE NEXT FEW MINUTES WE WOULD LIKE YOU TO KEEP YOUR EYES OPEN, RELAX AND REMAIN STILL.","5","0025145s1r1","0025145s1r1","0025145/session_1/rest_1/rest.nii.gz"
25054,"Baseline","3",0,"#","#",3,0,0,0,"#","open",45.49,"2","#",105,"112","96","38.98","1","YOU'RE DOING A GREAT JOB! FOR THE NEXT FEW MINUTES WE WOULD LIKE YOU TO KEEP YOUR EYES OPEN, RELAX AND REMAIN STILL.","5","0025054s1r1","0025054s1r1","0025054/session_1/rest_1/rest.nii.gz"
25134,"Baseline","1",0,"#","#",4,1,0,0,"#","open",53.96,"2","#",119,"116","118","26.61","1","YOU'RE DOING A GREAT JOB! FOR THE NEXT FEW MINUTES WE WOULD LIKE YOU TO KEEP YOUR EYES OPEN, RELAX AND REMAIN STILL.","5","0025134s1r1","0025134s1r1","0025134/session_1/rest_1/rest.nii.gz"
25044,"Retest_2","#",0,"27","d",4,0,0,0,"#","closed",35.73,"2","#",114,"113","111","22.59","1","YOU'RE DOING A GREAT JOB! FOR THE NEXT FEW MINUTES WE WOULD LIKE YOU TO KEEP YOUR EYES OPEN, RELAX AND REMAIN STILL.","5","0025044s2r1","0025044s2r1","0025044/session_2/rest_1/rest.nii.gz"
25036,"Retest_3","#",0,"23","m",3,1,0,0,"#","closed",27.03,"1","#",109,"115","102","32.61","1","YOU'RE DOING A GREAT JOB! FOR THE NEXT FEW MINUTES WE WOULD LIKE YOU TO KEEP YOUR EYES OPEN, RELAX AND REMAIN STILL.","5","0025036s2r1","0025036s2r2","0025036/session_2/rest_2/rest.nii.gz"
25087,"Baseline","1",0,"#","#",3,0,0,0,"#","closed",16.93,"2","#",124,"120","120","#","0","YOU'RE DOING A GREAT JOB! FOR THE NEXT FEW MINUTES WE WOULD LIKE YOU TO KEEP YOUR EYES OPEN, RELAX AND REMAIN STILL.","5","0025087s1r1","0025087s1r1","0025087/session_1/rest_1/rest.nii.gz"
25169,"Baseline","1",0,"#","#",4,1,0,0,"#","open",32.82,"2","#",107,"95","119","24.82","1","YOU'RE DOING A GREAT JOB! FOR THE NEXT FEW MINUTES WE WOULD LIKE YOU TO KEEP YOUR EYES OPEN, RELAX AND REMAIN STILL.","5","0025169s1r1","0025169s1r1","0025169/session_1/rest_1/rest.nii.gz"
25029,"Retest_1","#",1,"26","m",2,2,0,0,"#","open",20.02,"2","#",106,"96","116","26.45","1","YOU'RE DOING A GREAT JOB! FOR THE NEXT FEW MINUTES WE WOULD LIKE YOU TO KEEP YOUR EYES OPEN, RELAX AND REMAIN STILL.","5","0025029s1r1","0025029s1r2","0025029/session_1/rest_2/rest.nii.gz"
25085,"Retest_1","#",0,"25","m",4,3,0,0,"#","closed",14.19,"1","#",88,"91","89","#","0","YOU'RE DOING A GREAT JOB! FOR THE NEXT FEW MINUTES WE WOULD LIKE YOU TO KEEP YOUR EYES OPEN, RELAX AND REMAIN STILL.","5","0025085s1r1","0025085s1r2","0025085/session_1/rest_2/rest.nii.gz"
25093,"Baseline","1",0,"#","#",3,1,0,0,"#","open",14.79,"2","#",112,"116","106","17.79","0","YOU'RE DOING A GREAT JOB! FOR THE NEXT FEW MINUTES WE WOULD LIKE YOU TO KEEP YOUR EYES OPEN, RELAX AND REMAIN STILL.","5","0025093s1r1","0025093s1r1","0025093/session_1/rest_1/rest.nii.gz"
25020,"Retest_2","#",0,"27","d",3,2,0,0,"#","open",10.46,"2","#",119,"118","116","14.64","0","YOU'RE DOING A GREAT JOB! FOR THE NEXT FEW MINUTES WE WOULD LIKE YOU TO KEEP YOUR EYES OPEN, RELAX AND REMAIN STILL.","5","0025020s2r1","0025020s2r1","0025020/session_2/rest_1/rest.nii.gz"
25041,"Retest_2","#",0,"71","d",4,2,0,0,"#","open",24.71,"1","#",86,"86","90","22.12","1","YOU'RE DOING A GREAT JOB! FOR THE NEXT FEW MINUTES WE WOULD LIKE YOU TO KEEP YOUR EYES OPEN, RELAX AND REMAIN STILL.","5","0025041s2r1","0025041s2r1","0025041/session_2/rest_1/rest.nii.gz"
25116,"Baseline","1",0,"#","#",2,1,0,0,"#","closed",12.99,"1","#",105,"112","96","#","0","YOU'RE DOING A GREAT JOB! FOR THE NEXT FEW MINUTES WE WOULD LIKE YOU TO KEEP YOUR EYES OPEN, RELAX AND REMAIN STILL.","5","0025116s1r1","0025116s1r1","0025116/session_1/rest_1/rest.nii.gz"
25153,"Retest_1","#",1,"23","m",4,1,0,0,"#","open",11.34,"2","#",119,"114","120","14.62","0","YOU'RE DOING A GREAT JOB! FOR THE NEXT FEW MINUTES WE WOULD LIKE YOU TO KEEP YOUR EYES OPEN, RELAX AND REMAIN STILL.","5","0025153s1r1","0025153s1r2","0025153/session_1/rest_2/rest.nii.gz"
25015,"Retest_1","#",1,"22","m",2,3,0,0,"#","open",11.69,"2","#",116,"113","116","15.36","0","YOU'RE DOING A GREAT JOB! FOR THE NEXT FEW MINUTES WE WOULD LIKE YOU TO KEEP YOUR EYES OPEN, RELAX AND REMAIN STILL.","5","0025015s1r1","0025015s1r2","0025015/session_1/rest_2/rest.nii.gz"
25121,"Retest_1","#",0,"22","m",4,0,0,0,"#","closed",16.13,"2","#",109,"109","106","27.73","0","YOU'RE DOING A GREAT JOB! FOR THE NEXT FEW MINUTES WE WOULD LIKE YOU TO KEEP YOUR EYES OPEN, RELAX AND REMAIN STILL.","5","0025121s1r1","0025121s1r2","0025121/session_1/rest_2/rest.nii.gz"
25148,"Baseline","1",0,"#","#",4,0,0,0,"#","open",19.23,"2","#",129,"127","125","22.08","1","YOU'RE DOING A GREAT JOB! FOR THE NEXT FEW MINUTES WE WOULD LIKE YOU TO KEEP YOUR EYES OPEN, RELAX AND REMAIN STILL.","5","0025148s1r1","0025148s1r1","0025148/session_1/rest_1/rest.nii.gz"
