"SUBID","SESSION","AGE_AT_SCAN_1","SEX","DSM_IV_TR","FIQ","VIQ","PIQ","BMI","RESTING_STATE_INSTRUCTION","VISUAL_STIMULATION_CONDITION","RETEST_DESIGN","PRECEDING_CONDITION","RETEST_DURATION","RETEST_UNITS","TIME_OF_DAY","SEASON","SATIETY","LMP","HANDEDNESS","anat_id","rest_id","input_path"
25234,"Baseline",17,1,"#","#","#","#","#","Please close your eyes and rest for the next 5 minutes. Do your best not to fall asleep.",4,2,NA,"#","#","#","#","#","#","R","0025234s1r1","0025234s1r1","0025234/session_1/rest_1/rest.nii.gz"
25234,"Retest_1",17,1,"#","#","#","#","#","Please close your eyes and rest for the next 5 minutes. Do your best not to fall asleep.",4,2,NA,"558","d","#","#","#","#","R","0025234s2r1","0025234s2r1","0025234/session_2/rest_1/rest.nii.gz"
25235,"Baseline",15,1,"#","#","#","#","#","Please close your eyes and rest for the next 5 minutes. Do your best not to fall asleep.",4,2,NA,"#","#","#","#","#","#","R","0025235s1r1","0025235s1r1","0025235/session_1/rest_1/rest.nii.gz"
25235,"Retest_1",15,1,"#","#","#","#","#","Please close your eyes and rest for the next 5 minutes. Do your best not to fall asleep.",4,2,NA,"542","d","#","#","#","#","R","0025235s2r1","0025235s2r1","0025235/session_2/rest_1/rest.nii.gz"
25236,"Baseline",17.2,2,"#","#","#","#","#","Please close your eyes and rest for the next 5 minutes. Do your best not to fall asleep.",4,2,NA,"#","#","#","#","#","#","R","0025236s1r1","0025236s1r1","0025236/session_1/rest_1/rest.nii.gz"
25236,"Retest_1",17.2,2,"#","#","#","#","#","Please close your eyes and rest for the next 5 minutes. Do your best not to fall asleep.",4,2,NA,"559","d","#","#","#","#","R","0025236s2r1","0025236s2r1","0025236/session_2/rest_1/rest.nii.gz"
25237,"Baseline",17.6,1,"#","#","#","#","#","Please close your eyes and rest for the next 5 minutes. Do your best not to fall asleep.",4,2,NA,"#","#","#","#","#","#","R","0025237s1r1","0025237s1r1","0025237/session_1/rest_1/rest.nii.gz"
25237,"Retest_1",17.6,1,"#","#","#","#","#","Please close your eyes and rest for the next 5 minutes. Do your best not to fall asleep.",4,2,NA,"525","d","#","#","#","#","R","0025237s2r1","0025237s2r1","0025237/session_2/rest_1/rest.nii.gz"
25238,"Baseline",15.6,2,"#","#","#","#","#","Please close your eyes and rest for the next 5 minutes. Do your best not to fall asleep.",4,2,NA,"#","#","#","#","#","#","R","0025238s1r1","0025238s1r1","0025238/session_1/rest_1/rest.nii.gz"
25238,"Retest_1",15.6,2,"#","#","#","#","#","Please close your eyes and rest for the next 5 minutes. Do your best not to fall asleep.",4,2,NA,"538","d","#","#","#","#","R","0025238s2r1","0025238s2r1","0025238/session_2/rest_1/rest.nii.gz"
25238,"Retest_2",15.6,2,"#","#","#","#","#","Please close your eyes and rest for the next 5 minutes. Do your best not to fall asleep.",4,2,NA,"1335","d","#","#","#","#","R","0025238s3r1","0025238s3r1","0025238/session_3/rest_1/rest.nii.gz"
25239,"Baseline",13.1,2,"#","#","#","#","#","Please close your eyes and rest for the next 5 minutes. Do your best not to fall asleep.",4,2,NA,"#","#","#","#","#","#","R","0025239s1r1","0025239s1r1","0025239/session_1/rest_1/rest.nii.gz"
25239,"Retest_1",13.1,2,"#","#","#","#","#","Please close your eyes and rest for the next 5 minutes. Do your best not to fall asleep.",4,2,NA,"597","d","#","#","#","#","R","0025239s2r1","0025239s2r1","0025239/session_2/rest_1/rest.nii.gz"
25239,"Retest_2",13.1,2,"#","#","#","#","#","Please close your eyes and rest for the next 5 minutes. Do your best not to fall asleep.",4,2,NA,"1114","d","#","#","#","#","R","0025239s3r1","0025239s3r1","0025239/session_3/rest_1/rest.nii.gz"
25240,"Baseline",15.6,2,"#","#","#","#","#","Please close your eyes and rest for the next 5 minutes. Do your best not to fall asleep.",4,2,NA,"#","#","#","#","#","#","R","0025240s1r1","0025240s1r1","0025240/session_1/rest_1/rest.nii.gz"
25240,"Retest_1",15.6,2,"#","#","#","#","#","Please close your eyes and rest for the next 5 minutes. Do your best not to fall asleep.",4,2,NA,"558","d","#","#","#","#","R","0025240s2r1","0025240s2r1","0025240/session_2/rest_1/rest.nii.gz"
25240,"Retest_2",15.6,2,"#","#","#","#","#","Please close your eyes and rest for the next 5 minutes. Do your best not to fall asleep.",4,2,NA,"1193","d","#","#","#","#","R","0025240s3r1","0025240s3r1","0025240/session_3/rest_1/rest.nii.gz"
25241,"Baseline",10.5,2,"#","#","#","#","#","Please close your eyes and rest for the next 5 minutes. Do your best not to fall asleep.",4,2,NA,"#","#","#","#","#","#","R","0025241s1r1","0025241s1r1","0025241/session_1/rest_1/rest.nii.gz"
25241,"Retest_1",10.5,2,"#","#","#","#","#","Please close your eyes and rest for the next 5 minutes. Do your best not to fall asleep.",4,2,NA,"616","d","#","#","#","#","R","0025241s2r1","0025241s2r1","0025241/session_2/rest_1/rest.nii.gz"
25242,"Baseline",19.2,2,"#","#","#","#","#","Please close your eyes and rest for the next 5 minutes. Do your best not to fall asleep.",4,2,NA,"#","#","#","#","#","#","R","0025242s1r1","0025242s1r1","0025242/session_1/rest_1/rest.nii.gz"
25242,"Retest_1",19.2,2,"#","#","#","#","#","Please close your eyes and rest for the next 5 minutes. Do your best not to fall asleep.",4,2,NA,"562","d","#","#","#","#","R","0025242s2r1","0025242s2r1","0025242/session_2/rest_1/rest.nii.gz"
25243,"Baseline",18.7,2,"#","#","#","#","#","Please close your eyes and rest for the next 5 minutes. Do your best not to fall asleep.",4,2,NA,"#","#","#","#","#","#","R","0025243s1r1","0025243s1r1","0025243/session_1/rest_1/rest.nii.gz"
25243,"Retest_1",18.7,2,"#","#","#","#","#","Please close your eyes and rest for the next 5 minutes. Do your best not to fall asleep.",4,2,NA,"573","d","#","#","#","#","R","0025243s2r1","0025243s2r1","0025243/session_2/rest_1/rest.nii.gz"
25244,"Baseline",18.5,2,"#","#","#","#","#","Please close your eyes and rest for the next 5 minutes. Do your best not to fall asleep.",4,2,NA,"#","#","#","#","#","#","R","0025244s1r1","0025244s1r1","0025244/session_1/rest_1/rest.nii.gz"
25244,"Retest_1",18.5,2,"#","#","#","#","#","Please close your eyes and rest for the next 5 minutes. Do your best not to fall asleep.",4,2,NA,"523","d","#","#","#","#","R","0025244s2r1","0025244s2r1","0025244/session_2/rest_1/rest.nii.gz"
25244,"Retest_2",18.5,2,"#","#","#","#","#","Please close your eyes and rest for the next 5 minutes. Do your best not to fall asleep.",4,2,NA,"1093","d","#","#","#","#","R","0025244s3r1","0025244s3r1","0025244/session_3/rest_1/rest.nii.gz"
25245,"Baseline",18.9,2,"#","#","#","#","#","Please close your eyes and rest for the next 5 minutes. Do your best not to fall asleep.",4,2,NA,"#","#","#","#","#","#","R","0025245s1r1","0025245s1r1","0025245/session_1/rest_1/rest.nii.gz"
25245,"Retest_1",18.9,2,"#","#","#","#","#","Please close your eyes and rest for the next 5 minutes. Do your best not to fall asleep.",4,2,NA,"680","d","#","#","#","#","R","0025245s2r1","0025245s2r1","0025245/session_2/rest_1/rest.nii.gz"
25245,"Retest_2",18.9,2,"#","#","#","#","#","Please close your eyes and rest for the next 5 minutes. Do your best not to fall asleep.",4,2,NA,"1168","d","#","#","#","#","R","0025245s3r1","0025245s3r1","0025245/session_3/rest_1/rest.nii.gz"
25246,"Baseline",18.4,2,"#","#","#","#","#","Please close your eyes and rest for the next 5 minutes. Do your best not to fall asleep.",4,2,NA,"#","#","#","#","#","#","R","0025246s1r1","0025246s1r1","0025246/session_1/rest_1/rest.nii.gz"
25246,"Retest_1",18.4,2,"#","#","#","#","#","Please close your eyes and rest for the next 5 minutes. Do your best not to fall asleep.",4,2,NA,"860","d","#","#","#","#","R","0025246s2r1","0025246s2r1","0025246/session_2/rest_1/rest.nii.gz"
25247,"Baseline",19.7,1,"#","#","#","#","#","Please close your eyes and rest for the next 5 minutes. Do your best not to fall asleep.",4,2,NA,"#","#","#","#","#","#","R","0025247s1r1","0025247s1r1","0025247/session_1/rest_1/rest.nii.gz"
25247,"Retest_1",19.7,1,"#","#","#","#","#","Please close your eyes and rest for the next 5 minutes. Do your best not to fall asleep.",4,2,NA,"545","d","#","#","#","#","R","0025247s2r1","0025247s2r1","0025247/session_2/rest_1/rest.nii.gz"
25248,"Baseline",11.4,2,"#","#","#","#","#","Please close your eyes and rest for the next 5 minutes. Do your best not to fall asleep.",4,2,NA,"#","#","#","#","#","#","R","0025248s1r1","0025248s1r1","0025248/session_1/rest_1/rest.nii.gz"
25248,"Retest_1",11.4,2,"#","#","#","#","#","Please close your eyes and rest for the next 5 minutes. Do your best not to fall asleep.",4,2,NA,"548","d","#","#","#","#","R","0025248s2r1","0025248s2r1","0025248/session_2/rest_1/rest.nii.gz"
25249,"Baseline",18.5,1,"#","#","#","#","#","Please close your eyes and rest for the next 5 minutes. Do your best not to fall asleep.",4,2,NA,"#","#","#","#","#","#","R","0025249s1r1","0025249s1r1","0025249/session_1/rest_1/rest.nii.gz"
25249,"Retest_1",18.5,1,"#","#","#","#","#","Please close your eyes and rest for the next 5 minutes. Do your best not to fall asleep.",4,2,NA,"679","d","#","#","#","#","R","0025249s2r1","0025249s2r1","0025249/session_2/rest_1/rest.nii.gz"
25250,"Baseline",19.2,2,"#","#","#","#","#","Please close your eyes and rest for the next 5 minutes. Do your best not to fall asleep.",4,2,NA,"#","#","#","#","#","#","R","0025250s1r1","0025250s1r1","0025250/session_1/rest_1/rest.nii.gz"
25250,"Retest_1",19.2,2,"#","#","#","#","#","Please close your eyes and rest for the next 5 minutes. Do your best not to fall asleep.",4,2,NA,"525","d","#","#","#","#","R","0025250s2r1","0025250s2r1","0025250/session_2/rest_1/rest.nii.gz"
25251,"Baseline",14.8,1,"#","#","#","#","#","Please close your eyes and rest for the next 5 minutes. Do your best not to fall asleep.",4,2,NA,"#","#","#","#","#","#","R","0025251s1r1","0025251s1r1","0025251/session_1/rest_1/rest.nii.gz"
25251,"Retest_1",14.8,1,"#","#","#","#","#","Please close your eyes and rest for the next 5 minutes. Do your best not to fall asleep.",4,2,NA,"579","d","#","#","#","#","R","0025251s2r1","0025251s2r1","0025251/session_2/rest_1/rest.nii.gz"
25252,"Baseline",18.8,1,"#","#","#","#","#","Please close your eyes and rest for the next 5 minutes. Do your best not to fall asleep.",4,2,NA,"#","#","#","#","#","#","R","0025252s1r1","0025252s1r1","0025252/session_1/rest_1/rest.nii.gz"
25252,"Retest_1",18.8,1,"#","#","#","#","#","Please close your eyes and rest for the next 5 minutes. Do your best not to fall asleep.",4,2,NA,"1093","d","#","#","#","#","R","0025252s2r1","0025252s2r1","0025252/session_2/rest_1/rest.nii.gz"
25252,"Retest_2",18.8,1,"#","#","#","#","#","Please close your eyes and rest for the next 5 minutes. Do your best not to fall asleep.",4,2,NA,"1093","d","#","#","#","#","R","0025252s3r1","0025252s3r1","0025252/session_3/rest_1/rest.nii.gz"
25253,"Baseline",12.7,1,"#","#","#","#","#","Please close your eyes and rest for the next 5 minutes. Do your best not to fall asleep.",4,2,NA,"#","#","#","#","#","#","R","0025253s1r1","0025253s1r1","0025253/session_1/rest_1/rest.nii.gz"
25253,"Retest_1",12.7,1,"#","#","#","#","#","Please close your eyes and rest for the next 5 minutes. Do your best not to fall asleep.",4,2,NA,"579","d","#","#","#","#","R","0025253s2r1","0025253s2r1","0025253/session_2/rest_1/rest.nii.gz"
25253,"Retest_2",12.7,1,"#","#","#","#","#","Please close your eyes and rest for the next 5 minutes. Do your best not to fall asleep.",4,2,NA,"1332","d","#","#","#","#","R","0025253s3r1","0025253s3r1","0025253/session_3/rest_1/rest.nii.gz"
25254,"Baseline",14.9,1,"#","#","#","#","#","Please close your eyes and rest for the next 5 minutes. Do your best not to fall asleep.",4,2,NA,"#","#","#","#","#","#","R","0025254s1r1","0025254s1r1","0025254/session_1/rest_1/rest.nii.gz"
25254,"Retest_1",14.9,1,"#","#","#","#","#","Please close your eyes and rest for the next 5 minutes. Do your best not to fall asleep.",4,2,NA,"647","d","#","#","#","#","R","0025254s2r1","0025254s2r1","0025254/session_2/rest_1/rest.nii.gz"
25254,"Retest_2",14.9,1,"#","#","#","#","#","Please close your eyes and rest for the next 5 minutes. Do your best not to fall asleep.",4,2,NA,"1404","d","#","#","#","#","R","0025254s3r1","0025254s3r1","0025254/session_3/rest_1/rest.nii.gz"
25255,"Baseline",18.9,2,"#","#","#","#","#","Please close your eyes and rest for the next 5 minutes. Do your best not to fall asleep.",4,2,NA,"#","#","#","#","#","#","R","0025255s1r1","0025255s1r1","0025255/session_1/rest_1/rest.nii.gz"
25255,"Retest_1",18.9,2,"#","#","#","#","#","Please close your eyes and rest for the next 5 minutes. Do your best not to fall asleep.",4,2,NA,"603","d","#","#","#","#","R","0025255s2r1","0025255s2r1","0025255/session_2/rest_1/rest.nii.gz"
25256,"Baseline",13.9,1,"#","#","#","#","#","Please close your eyes and rest for the next 5 minutes. Do your best not to fall asleep.",4,2,NA,"#","#","#","#","#","#","R","0025256s1r1","0025256s1r1","0025256/session_1/rest_1/rest.nii.gz"
25256,"Retest_1",13.9,1,"#","#","#","#","#","Please close your eyes and rest for the next 5 minutes. Do your best not to fall asleep.",4,2,NA,"539","d","#","#","#","#","R","0025256s2r1","0025256s2r1","0025256/session_2/rest_1/rest.nii.gz"
25257,"Baseline",11.7,2,"#","#","#","#","#","Please close your eyes and rest for the next 5 minutes. Do your best not to fall asleep.",4,2,NA,"#","#","#","#","#","#","R","0025257s1r1","0025257s1r1","0025257/session_1/rest_1/rest.nii.gz"
25257,"Retest_1",11.7,2,"#","#","#","#","#","Please close your eyes and rest for the next 5 minutes. Do your best not to fall asleep.",4,2,NA,"539","d","#","#","#","#","R","0025257s2r1","0025257s2r1","0025257/session_2/rest_1/rest.nii.gz"
25257,"Retest_2",11.7,2,"#","#","#","#","#","Please close your eyes and rest for the next 5 minutes. Do your best not to fall asleep.",4,2,NA,"1346","d","#","#","#","#","R","0025257s3r1","0025257s3r1","0025257/session_3/rest_1/rest.nii.gz"
25258,"Baseline",12.5,2,"#","#","#","#","#","Please close your eyes and rest for the next 5 minutes. Do your best not to fall asleep.",4,2,NA,"#","#","#","#","#","#","L","0025258s1r1","0025258s1r1","0025258/session_1/rest_1/rest.nii.gz"
25258,"Retest_1",12.5,2,"#","#","#","#","#","Please close your eyes and rest for the next 5 minutes. Do your best not to fall asleep.",4,2,NA,"556","d","#","#","#","#","L","0025258s2r1","0025258s2r1","0025258/session_2/rest_1/rest.nii.gz"
25259,"Baseline",10.6,1,"#","#","#","#","#","Please close your eyes and rest for the next 5 minutes. Do your best not to fall asleep.",4,2,NA,"#","#","#","#","#","#","R","0025259s1r1","0025259s1r1","0025259/session_1/rest_1/rest.nii.gz"
25259,"Retest_1",10.6,1,"#","#","#","#","#","Please close your eyes and rest for the next 5 minutes. Do your best not to fall asleep.",4,2,NA,"598","d","#","#","#","#","R","0025259s2r1","0025259s2r1","0025259/session_2/rest_1/rest.nii.gz"
25259,"Retest_2",10.6,1,"#","#","#","#","#","Please close your eyes and rest for the next 5 minutes. Do your best not to fall asleep.",4,2,NA,"1150","d","#","#","#","#","R","0025259s3r1","0025259s3r1","0025259/session_3/rest_1/rest.nii.gz"
25260,"Baseline",12.9,2,"#","#","#","#","#","Please close your eyes and rest for the next 5 minutes. Do your best not to fall asleep.",4,2,NA,"#","#","#","#","#","#","R","0025260s1r1","0025260s1r1","0025260/session_1/rest_1/rest.nii.gz"
25260,"Retest_1",12.9,2,"#","#","#","#","#","Please close your eyes and rest for the next 5 minutes. Do your best not to fall asleep.",4,2,NA,"554","d","#","#","#","#","R","0025260s2r1","0025260s2r1","0025260/session_2/rest_1/rest.nii.gz"
25261,"Baseline",14.1,2,"#","#","#","#","#","Please close your eyes and rest for the next 5 minutes. Do your best not to fall asleep.",4,2,NA,"#","#","#","#","#","#","R","0025261s1r1","0025261s1r1","0025261/session_1/rest_1/rest.nii.gz"
25261,"Retest_1",14.1,2,"#","#","#","#","#","Please close your eyes and rest for the next 5 minutes. Do your best not to fall asleep.",4,2,NA,"548","d","#","#","#","#","R","0025261s2r1","0025261s2r1","0025261/session_2/rest_1/rest.nii.gz"
25261,"Retest_2",14.1,2,"#","#","#","#","#","Please close your eyes and rest for the next 5 minutes. Do your best not to fall asleep.",4,2,NA,"1344","d","#","#","#","#","R","0025261s3r1","0025261s3r1","0025261/session_3/rest_1/rest.nii.gz"
25262,"Baseline",15.9,2,"#","#","#","#","#","Please close your eyes and rest for the next 5 minutes. Do your best not to fall asleep.",4,2,NA,"#","#","#","#","#","#","R","0025262s1r1","0025262s1r1","0025262/session_1/rest_1/rest.nii.gz"
25262,"Retest_1",15.9,2,"#","#","#","#","#","Please close your eyes and rest for the next 5 minutes. Do your best not to fall asleep.",4,2,NA,"530","d","#","#","#","#","R","0025262s2r1","0025262s2r1","0025262/session_2/rest_1/rest.nii.gz"
25263,"Baseline",14.6,2,"#","#","#","#","#","Please close your eyes and rest for the next 5 minutes. Do your best not to fall asleep.",4,2,NA,"#","#","#","#","#","#","R","0025263s1r1","0025263s1r1","0025263/session_1/rest_1/rest.nii.gz"
25263,"Retest_1",16.5,2,"#","#","#","#","#","Please close your eyes and rest for the next 5 minutes. Do your best not to fall asleep.",4,2,NA,"687","d","#","#","#","#","R","0025263s2r1","0025263s2r1","0025263/session_2/rest_1/rest.nii.gz"
25263,"Retest_2",17.5,2,"#","#","#","#","#","Please close your eyes and rest for the next 5 minutes. Do your best not to fall asleep.",4,2,NA,"1065","d","#","#","#","#","R","0025263s3r1","0025263s3r1","0025263/session_3/rest_1/rest.nii.gz"
25264,"Baseline",11.5,2,"#","#","#","#","#","Please close your eyes and rest for the next 5 minutes. Do your best not to fall asleep.",4,2,NA,"#","#","#","#","#","#","R","0025264s1r1","0025264s1r1","0025264/session_1/rest_1/rest.nii.gz"
25264,"Retest_1",13.1,2,"#","#","#","#","#","Please close your eyes and rest for the next 5 minutes. Do your best not to fall asleep.",4,2,NA,"565","d","#","#","#","#","R","0025264s2r1","0025264s2r1","0025264/session_2/rest_1/rest.nii.gz"
25264,"Retest_2",14.4,2,"#","#","#","#","#","Please close your eyes and rest for the next 5 minutes. Do your best not to fall asleep.",4,2,NA,"1065","d","#","#","#","#","R","0025264s3r1","0025264s3r1","0025264/session_3/rest_1/rest.nii.gz"
25265,"Baseline",13.5,2,"#","#","#","#","#","Please close your eyes and rest for the next 5 minutes. Do your best not to fall asleep.",4,2,NA,"#","#","#","#","#","#","R","0025265s1r1","0025265s1r1","0025265/session_1/rest_1/rest.nii.gz"
25265,"Retest_1",15.2,2,"#","#","#","#","#","Please close your eyes and rest for the next 5 minutes. Do your best not to fall asleep.",4,2,NA,"607","d","#","#","#","#","R","0025265s2r1","0025265s2r1","0025265/session_2/rest_1/rest.nii.gz"
25265,"Retest_2",16.7,2,"#","#","#","#","#","Please close your eyes and rest for the next 5 minutes. Do your best not to fall asleep.",4,2,NA,"1151","d","#","#","#","#","R","0025265s3r1","0025265s3r1","0025265/session_3/rest_1/rest.nii.gz"
25266,"Baseline",14,2,"#","#","#","#","#","Please close your eyes and rest for the next 5 minutes. Do your best not to fall asleep.",4,2,NA,"#","#","#","#","#","#","R","0025266s1r1","0025266s1r1","0025266/session_1/rest_1/rest.nii.gz"
25266,"Retest_1",15.7,2,"#","#","#","#","#","Please close your eyes and rest for the next 5 minutes. Do your best not to fall asleep.",4,2,NA,"642","d","#","#","#","#","R","0025266s2r1","0025266s2r1","0025266/session_2/rest_1/rest.nii.gz"
25267,"Baseline",17.5,2,"#","#","#","#","#","Please close your eyes and rest for the next 5 minutes. Do your best not to fall asleep.",4,2,NA,"#","#","#","#","#","#","R","0025267s1r1","0025267s1r1","0025267/session_1/rest_1/rest.nii.gz"
25267,"Retest_1",19.2,2,"#","#","#","#","#","Please close your eyes and rest for the next 5 minutes. Do your best not to fall asleep.",4,2,NA,"632","d","#","#","#","#","R","0025267s3r1","0025267s2r1","0025267/session_2/rest_1/rest.nii.gz"
25267,"Retest_2",20.6,2,"#","#","#","#","#","Please close your eyes and rest for the next 5 minutes. Do your best not to fall asleep.",4,2,NA,"1143","d","#","#","#","#","R","0025267s3r1","0025267s3r1","0025267/session_3/rest_1/rest.nii.gz"
25268,"Baseline",12.5,1,"#","#","#","#","#","Please close your eyes and rest for the next 5 minutes. Do your best not to fall asleep.",4,2,NA,"#","#","#","#","#","#","R","0025268s1r1","0025268s1r1","0025268/session_1/rest_1/rest.nii.gz"
25268,"Retest_1",14.1,1,"#","#","#","#","#","Please close your eyes and rest for the next 5 minutes. Do your best not to fall asleep.",4,2,NA,"609","d","#","#","#","#","R","0025268s1r1","0025268s2r1","0025268/session_2/rest_1/rest.nii.gz"
25269,"Baseline",19.2,2,"#","#","#","#","#","Please close your eyes and rest for the next 5 minutes. Do your best not to fall asleep.",4,2,NA,"#","#","#","#","#","#","R","0025269s1r1","0025269s1r1","0025269/session_1/rest_1/rest.nii.gz"
25269,"Retest_1",19.2,2,"#","#","#","#","#","Please close your eyes and rest for the next 5 minutes. Do your best not to fall asleep.",4,2,NA,"547","d","#","#","#","#","R","0025269s2r1","0025269s2r1","0025269/session_2/rest_1/rest.nii.gz"
25270,"Baseline",14.8,1,"#","#","#","#","#","Please close your eyes and rest for the next 5 minutes. Do your best not to fall asleep.",4,2,NA,"#","#","#","#","#","#","R","0025270s1r1","0025270s1r1","0025270/session_1/rest_1/rest.nii.gz"
25270,"Retest_1",14.8,1,"#","#","#","#","#","Please close your eyes and rest for the next 5 minutes. Do your best not to fall asleep.",4,2,NA,"728","d","#","#","#","#","R","0025270s2r1","0025270s2r1","0025270/session_2/rest_1/rest.nii.gz"
25270,"Retest_2",14.8,1,"#","#","#","#","#","Please close your eyes and rest for the next 5 minutes. Do your best not to fall asleep.",4,2,NA,"1154","d","#","#","#","#","R","0025270s3r1","0025270s3r1","0025270/session_3/rest_1/rest.nii.gz"
25271,"Baseline",16.2,2,"#","#","#","#","#","Please close your eyes and rest for the next 5 minutes. Do your best not to fall asleep.",4,2,NA,"#","#","#","#","#","#","R","0025271s1r1","0025271s1r1","0025271/session_1/rest_1/rest.nii.gz"
25271,"Retest_1",16.2,2,"#","#","#","#","#","Please close your eyes and rest for the next 5 minutes. Do your best not to fall asleep.",4,2,NA,"560","d","#","#","#","#","R","0025271s2r1","0025271s2r1","0025271/session_2/rest_1/rest.nii.gz"
25271,"Retest_2",16.2,2,"#","#","#","#","#","Please close your eyes and rest for the next 5 minutes. Do your best not to fall asleep.",4,2,NA,"1292","d","#","#","#","#","R","0025271s3r1","0025271s3r1","0025271/session_3/rest_1/rest.nii.gz"
25272,"Baseline",15.7,1,"#","#","#","#","#","Please close your eyes and rest for the next 5 minutes. Do your best not to fall asleep.",4,2,NA,"#","#","#","#","#","#","R","0025272s1r1","0025272s1r1","0025272/session_1/rest_1/rest.nii.gz"
25272,"Retest_1",15.7,1,"#","#","#","#","#","Please close your eyes and rest for the next 5 minutes. Do your best not to fall asleep.",4,2,NA,"551","d","#","#","#","#","R","0025272s2r1","0025272s2r1","0025272/session_2/rest_1/rest.nii.gz"
25272,"Retest_2",15.7,1,"#","#","#","#","#","Please close your eyes and rest for the next 5 minutes. Do your best not to fall asleep.",4,2,NA,"1092","d","#","#","#","#","R","0025272s3r1","0025272s3r1","0025272/session_3/rest_1/rest.nii.gz"
25273,"Baseline",18.2,2,"#","#","#","#","#","Please close your eyes and rest for the next 5 minutes. Do your best not to fall asleep.",4,2,NA,"#","#","#","#","#","#","R","0025273s1r1","0025273s1r1","0025273/session_1/rest_1/rest.nii.gz"
25273,"Retest_1",18.2,2,"#","#","#","#","#","Please close your eyes and rest for the next 5 minutes. Do your best not to fall asleep.",4,2,NA,"637","d","#","#","#","#","R","0025273s2r1","0025273s2r1","0025273/session_2/rest_1/rest.nii.gz"
25273,"Retest_2",18.2,2,"#","#","#","#","#","Please close your eyes and rest for the next 5 minutes. Do your best not to fall asleep.",4,2,NA,"1196","d","#","#","#","#","R","0025273s3r1","0025273s3r1","0025273/session_3/rest_1/rest.nii.gz"
25274,"Baseline",17.1,1,"#","#","#","#","#","Please close your eyes and rest for the next 5 minutes. Do your best not to fall asleep.",4,2,NA,"#","#","#","#","#","#","R","0025274s1r1","0025274s1r1","0025274/session_1/rest_1/rest.nii.gz"
25274,"Retest_1",17.1,1,"#","#","#","#","#","Please close your eyes and rest for the next 5 minutes. Do your best not to fall asleep.",4,2,NA,"607","d","#","#","#","#","R","0025274s2r1","0025274s2r1","0025274/session_2/rest_1/rest.nii.gz"
25274,"Retest_2",17.1,1,"#","#","#","#","#","Please close your eyes and rest for the next 5 minutes. Do your best not to fall asleep.",4,2,NA,"1140","d","#","#","#","#","R","0025274s3r1","0025274s3r1","0025274/session_3/rest_1/rest.nii.gz"
25275,"Baseline",15.4,1,"#","#","#","#","#","Please close your eyes and rest for the next 5 minutes. Do your best not to fall asleep.",4,2,NA,"#","#","#","#","#","#","R","0025275s1r1","0025275s1r1","0025275/session_1/rest_1/rest.nii.gz"
25275,"Retest_1",15.4,1,"#","#","#","#","#","Please close your eyes and rest for the next 5 minutes. Do your best not to fall asleep.",4,2,NA,"565","d","#","#","#","#","R","0025275s2r1","0025275s2r1","0025275/session_2/rest_1/rest.nii.gz"
25275,"Retest_2",15.4,1,"#","#","#","#","#","Please close your eyes and rest for the next 5 minutes. Do your best not to fall asleep.",4,2,NA,"1132","d","#","#","#","#","R","0025275s3r1","0025275s3r1","0025275/session_3/rest_1/rest.nii.gz"
25276,"Baseline",14.9,1,"#","#","#","#","#","Please close your eyes and rest for the next 5 minutes. Do your best not to fall asleep.",4,2,NA,"#","#","#","#","#","#","R","0025276s1r1","0025276s1r1","0025276/session_1/rest_1/rest.nii.gz"
25276,"Retest_1",14.9,1,"#","#","#","#","#","Please close your eyes and rest for the next 5 minutes. Do your best not to fall asleep.",4,2,NA,"568","d","#","#","#","#","R","0025276s2r1","0025276s2r1","0025276/session_2/rest_1/rest.nii.gz"
25276,"Retest_2",14.9,1,"#","#","#","#","#","Please close your eyes and rest for the next 5 minutes. Do your best not to fall asleep.",4,2,NA,"1101","d","#","#","#","#","R","0025276s3r1","0025276s3r1","0025276/session_3/rest_1/rest.nii.gz"
25277,"Baseline",11.2,2,"#","#","#","#","#","Please close your eyes and rest for the next 5 minutes. Do your best not to fall asleep.",4,2,NA,"#","#","#","#","#","#","R","0025277s1r1","0025277s1r1","0025277/session_1/rest_1/rest.nii.gz"
25277,"Retest_1",11.2,2,"#","#","#","#","#","Please close your eyes and rest for the next 5 minutes. Do your best not to fall asleep.",4,2,NA,"596","d","#","#","#","#","R","0025277s2r1","0025277s2r1","0025277/session_2/rest_1/rest.nii.gz"
25277,"Retest_2",11.2,2,"#","#","#","#","#","Please close your eyes and rest for the next 5 minutes. Do your best not to fall asleep.",4,2,NA,"1129","d","#","#","#","#","R","0025277s3r1","0025277s3r1","0025277/session_3/rest_1/rest.nii.gz"
25278,"Baseline",15.2,1,"#","#","#","#","#","Please close your eyes and rest for the next 5 minutes. Do your best not to fall asleep.",4,2,NA,"#","#","#","#","#","#","R","0025278s1r1","0025278s1r1","0025278/session_1/rest_1/rest.nii.gz"
25278,"Retest_1",15.2,1,"#","#","#","#","#","Please close your eyes and rest for the next 5 minutes. Do your best not to fall asleep.",4,2,NA,"557","d","#","#","#","#","R","0025278s2r1","0025278s2r1","0025278/session_2/rest_1/rest.nii.gz"
25278,"Retest_2",15.2,1,"#","#","#","#","#","Please close your eyes and rest for the next 5 minutes. Do your best not to fall asleep.",4,2,NA,"1112","d","#","#","#","#","R","0025278s3r1","0025278s3r1","0025278/session_3/rest_1/rest.nii.gz"
25279,"Baseline",18.1,1,"#","#","#","#","#","Please close your eyes and rest for the next 5 minutes. Do your best not to fall asleep.",4,2,NA,"#","#","#","#","#","#","R","0025279s1r1","0025279s1r1","0025279/session_1/rest_1/rest.nii.gz"
25279,"Retest_1",18.1,1,"#","#","#","#","#","Please close your eyes and rest for the next 5 minutes. Do your best not to fall asleep.",4,2,NA,"741","d","#","#","#","#","R","0025279s2r1","0025279s2r1","0025279/session_2/rest_1/rest.nii.gz"
25280,"Baseline",17.9,1,"#","#","#","#","#","Please close your eyes and rest for the next 5 minutes. Do your best not to fall asleep.",4,2,NA,"#","#","#","#","#","#","R","0025280s1r1","0025280s1r1","0025280/session_1/rest_1/rest.nii.gz"
25280,"Retest_1",17.9,1,"#","#","#","#","#","Please close your eyes and rest for the next 5 minutes. Do your best not to fall asleep.",4,2,NA,"741","d","#","#","#","#","R","0025280s2r1","0025280s2r1","0025280/session_2/rest_1/rest.nii.gz"
25281,"Baseline",14.7,2,"#","#","#","#","#","Please close your eyes and rest for the next 5 minutes. Do your best not to fall asleep.",4,2,NA,"#","#","#","#","#","#","L","0025281s1r1","0025281s1r1","0025281/session_1/rest_1/rest.nii.gz"
25281,"Retest_1",14.7,2,"#","#","#","#","#","Please close your eyes and rest for the next 5 minutes. Do your best not to fall asleep.",4,2,NA,"652","d","#","#","#","#","L","0025281s2r1","0025281s2r1","0025281/session_2/rest_1/rest.nii.gz"
25282,"Baseline",12.3,1,"#","#","#","#","#","Please close your eyes and rest for the next 5 minutes. Do your best not to fall asleep.",4,2,NA,"#","#","#","#","#","#","R","0025282s1r1","0025282s1r1","0025282/session_1/rest_1/rest.nii.gz"
25282,"Retest_1",12.3,1,"#","#","#","#","#","Please close your eyes and rest for the next 5 minutes. Do your best not to fall asleep.",4,2,NA,"567","d","#","#","#","#","R","0025282s2r1","0025282s2r1","0025282/session_2/rest_1/rest.nii.gz"
25283,"Baseline",12.9,2,"#","#","#","#","#","Please close your eyes and rest for the next 5 minutes. Do your best not to fall asleep.",4,2,NA,"#","#","#","#","#","#","R","0025283s1r1","0025283s1r1","0025283/session_1/rest_1/rest.nii.gz"
25283,"Retest_1",12.9,2,"#","#","#","#","#","Please close your eyes and rest for the next 5 minutes. Do your best not to fall asleep.",4,2,NA,"620","d","#","#","#","#","R","0025283s2r1","0025283s2r1","0025283/session_2/rest_1/rest.nii.gz"
25283,"Retest_2",12.9,2,"#","#","#","#","#","Please close your eyes and rest for the next 5 minutes. Do your best not to fall asleep.",4,2,NA,"1092","d","#","#","#","#","R","0025283s3r1","0025283s3r1","0025283/session_3/rest_1/rest.nii.gz"
25284,"Baseline",11.1,2,"#","#","#","#","#","Please close your eyes and rest for the next 5 minutes. Do your best not to fall asleep.",4,2,NA,"#","#","#","#","#","#","R","0025284s1r1","0025284s1r1","0025284/session_1/rest_1/rest.nii.gz"
25284,"Retest_1",11.1,2,"#","#","#","#","#","Please close your eyes and rest for the next 5 minutes. Do your best not to fall asleep.",4,2,NA,"653","d","#","#","#","#","R","0025284s2r1","0025284s2r1","0025284/session_2/rest_1/rest.nii.gz"
25285,"Baseline",16.4,1,"#","#","#","#","#","Please close your eyes and rest for the next 5 minutes. Do your best not to fall asleep.",4,2,NA,"#","#","#","#","#","#","R","0025285s1r1","0025285s1r1","0025285/session_1/rest_1/rest.nii.gz"
25285,"Retest_1",16.4,1,"#","#","#","#","#","Please close your eyes and rest for the next 5 minutes. Do your best not to fall asleep.",4,2,NA,"554","d","#","#","#","#","R","0025285s2r1","0025285s2r1","0025285/session_2/rest_1/rest.nii.gz"
25285,"Retest_2",16.4,1,"#","#","#","#","#","Please close your eyes and rest for the next 5 minutes. Do your best not to fall asleep.",4,2,NA,"1120","d","#","#","#","#","R","0025285s3r1","0025285s3r1","0025285/session_3/rest_1/rest.nii.gz"
25286,"Baseline",18,1,"#","#","#","#","#","Please close your eyes and rest for the next 5 minutes. Do your best not to fall asleep.",4,2,NA,"#","#","#","#","#","#","R","0025286s1r1","0025286s1r1","0025286/session_1/rest_1/rest.nii.gz"
25286,"Retest_1",18,1,"#","#","#","#","#","Please close your eyes and rest for the next 5 minutes. Do your best not to fall asleep.",4,2,NA,"591","d","#","#","#","#","R","0025286s2r1","0025286s2r1","0025286/session_2/rest_1/rest.nii.gz"
25286,"Retest_2",18,1,"#","#","#","#","#","Please close your eyes and rest for the next 5 minutes. Do your best not to fall asleep.",4,2,NA,"1074","d","#","#","#","#","R","0025286s3r1","0025286s3r1","0025286/session_3/rest_1/rest.nii.gz"
25287,"Baseline",12.1,1,"#","#","#","#","#","Please close your eyes and rest for the next 5 minutes. Do your best not to fall asleep.",4,2,NA,"#","#","#","#","#","#","R","0025287s1r1","0025287s1r1","0025287/session_1/rest_1/rest.nii.gz"
25287,"Retest_1",12.1,1,"#","#","#","#","#","Please close your eyes and rest for the next 5 minutes. Do your best not to fall asleep.",4,2,NA,"559","d","#","#","#","#","R","0025287s2r1","0025287s2r1","0025287/session_2/rest_1/rest.nii.gz"
25287,"Retest_2",12.1,1,"#","#","#","#","#","Please close your eyes and rest for the next 5 minutes. Do your best not to fall asleep.",4,2,NA,"1095","d","#","#","#","#","R","0025287s3r1","0025287s3r1","0025287/session_3/rest_1/rest.nii.gz"
25288,"Baseline",18.4,1,"#","#","#","#","#","Please close your eyes and rest for the next 5 minutes. Do your best not to fall asleep.",4,2,NA,"#","#","#","#","#","#","R","0025288s1r1","0025288s1r1","0025288/session_1/rest_1/rest.nii.gz"
25288,"Retest_1",18.4,1,"#","#","#","#","#","Please close your eyes and rest for the next 5 minutes. Do your best not to fall asleep.",4,2,NA,"545","d","#","#","#","#","R","0025288s2r1","0025288s2r1","0025288/session_2/rest_1/rest.nii.gz"
25288,"Retest_2",18.4,1,"#","#","#","#","#","Please close your eyes and rest for the next 5 minutes. Do your best not to fall asleep.",4,2,NA,"1046","d","#","#","#","#","R","0025288s3r1","0025288s3r1","0025288/session_3/rest_1/rest.nii.gz"
25289,"Baseline",18.6,1,"#","#","#","#","#","Please close your eyes and rest for the next 5 minutes. Do your best not to fall asleep.",4,2,NA,"#","#","#","#","#","#","R","0025289s1r1","0025289s1r1","0025289/session_1/rest_1/rest.nii.gz"
25289,"Retest_1",18.6,1,"#","#","#","#","#","Please close your eyes and rest for the next 5 minutes. Do your best not to fall asleep.",4,2,NA,"646","d","#","#","#","#","R","0025289s2r1","0025289s2r1","0025289/session_2/rest_1/rest.nii.gz"
25290,"Baseline",18.5,1,"#","#","#","#","#","Please close your eyes and rest for the next 5 minutes. Do your best not to fall asleep.",4,2,NA,"#","#","#","#","#","#","R","0025290s1r1","0025290s1r1","0025290/session_1/rest_1/rest.nii.gz"
25290,"Retest_1",18.5,1,"#","#","#","#","#","Please close your eyes and rest for the next 5 minutes. Do your best not to fall asleep.",4,2,NA,"665","d","#","#","#","#","R","0025290s2r1","0025290s2r1","0025290/session_2/rest_1/rest.nii.gz"
25290,"Retest_2",18.5,1,"#","#","#","#","#","Please close your eyes and rest for the next 5 minutes. Do your best not to fall asleep.",4,2,NA,"1073","d","#","#","#","#","R","0025290s3r1","0025290s3r1","0025290/session_3/rest_1/rest.nii.gz"
25291,"Baseline",18.9,1,"#","#","#","#","#","Please close your eyes and rest for the next 5 minutes. Do your best not to fall asleep.",4,2,NA,"#","#","#","#","#","#","R","0025291s1r1","0025291s1r1","0025291/session_1/rest_1/rest.nii.gz"
25291,"Retest_1",18.9,1,"#","#","#","#","#","Please close your eyes and rest for the next 5 minutes. Do your best not to fall asleep.",4,2,NA,"653","d","#","#","#","#","R","0025291s2r1","0025291s2r1","0025291/session_2/rest_1/rest.nii.gz"
25291,"Retest_2",18.9,1,"#","#","#","#","#","Please close your eyes and rest for the next 5 minutes. Do your best not to fall asleep.",4,2,NA,"1156","d","#","#","#","#","R","0025291s3r1","0025291s3r1","0025291/session_3/rest_1/rest.nii.gz"
25292,"Baseline",18.3,1,"#","#","#","#","#","Please close your eyes and rest for the next 5 minutes. Do your best not to fall asleep.",4,2,NA,"#","#","#","#","#","#","R","0025292s1r1","0025292s1r1","0025292/session_1/rest_1/rest.nii.gz"
25292,"Retest_1",18.3,1,"#","#","#","#","#","Please close your eyes and rest for the next 5 minutes. Do your best not to fall asleep.",4,2,NA,"1106","d","#","#","#","#","R","0025292s2r1","0025292s2r1","0025292/session_2/rest_1/rest.nii.gz"
25293,"Baseline",11,2,"#","#","#","#","#","Please close your eyes and rest for the next 5 minutes. Do your best not to fall asleep.",4,2,NA,"#","#","#","#","#","#","R","0025293s1r1","0025293s1r1","0025293/session_1/rest_1/rest.nii.gz"
25293,"Retest_1",11,2,"#","#","#","#","#","Please close your eyes and rest for the next 5 minutes. Do your best not to fall asleep.",4,2,NA,"861","d","#","#","#","#","R","0025293s2r1","0025293s2r1","0025293/session_2/rest_1/rest.nii.gz"
25294,"Baseline",12.7,2,"#","#","#","#","#","Please close your eyes and rest for the next 5 minutes. Do your best not to fall asleep.",4,2,NA,"#","#","#","#","#","#","R","0025294s1r1","0025294s1r1","0025294/session_1/rest_1/rest.nii.gz"
25294,"Retest_1",12.7,2,"#","#","#","#","#","Please close your eyes and rest for the next 5 minutes. Do your best not to fall asleep.",4,2,NA,"553","d","#","#","#","#","R","0025294s2r1","0025294s2r1","0025294/session_2/rest_1/rest.nii.gz"
25295,"Baseline",13.7,2,"#","#","#","#","#","Please close your eyes and rest for the next 5 minutes. Do your best not to fall asleep.",4,2,NA,"#","#","#","#","#","#","R","0025295s1r1","0025295s1r1","0025295/session_1/rest_1/rest.nii.gz"
25295,"Retest_1",13.7,2,"#","#","#","#","#","Please close your eyes and rest for the next 5 minutes. Do your best not to fall asleep.",4,2,NA,"553","d","#","#","#","#","R","0025295s2r1","0025295s2r1","0025295/session_2/rest_1/rest.nii.gz"
25307,"Baseline",12.4,2,"#","#","#","#","#","Please close your eyes and rest for the next 5 minutes. Do your best not to fall asleep.",4,2,NA,"#","#","#","#","#","#","R","0025307s1r1","0025307s1r1","0025307/session_1/rest_1/rest.nii.gz"
25307,"Retest_1",12.4,2,"#","#","#","#","#","Please close your eyes and rest for the next 5 minutes. Do your best not to fall asleep.",4,2,NA,"510","d","#","#","#","#","R","0025307s2r1","0025307s2r1","0025307/session_2/rest_1/rest.nii.gz"
25308,"Baseline",18.9,2,"#","#","#","#","#","Please close your eyes and rest for the next 5 minutes. Do your best not to fall asleep.",4,2,NA,"#","#","#","#","#","#","R","0025308s1r1","0025308s1r1","0025308/session_1/rest_1/rest.nii.gz"
25308,"Retest_1",18.9,2,"#","#","#","#","#","Please close your eyes and rest for the next 5 minutes. Do your best not to fall asleep.",4,2,NA,"622","d","#","#","#","#","R","0025308s2r1","0025308s2r1","0025308/session_2/rest_1/rest.nii.gz"
25296,"Baseline",18.7,2,"#","#","#","#","#","Please close your eyes and rest for the next 5 minutes. Do your best not to fall asleep.",4,2,NA,"#","#","#","#","#","#","L","0025296s1r1","0025296s1r1","0025296/session_1/rest_1/rest.nii.gz"
25296,"Retest_1",18.7,2,"#","#","#","#","#","Please close your eyes and rest for the next 5 minutes. Do your best not to fall asleep.",4,2,NA,"631","d","#","#","#","#","L","0025296s2r1","0025296s2r1","0025296/session_2/rest_1/rest.nii.gz"
25297,"Baseline",15.9,1,"#","#","#","#","#","Please close your eyes and rest for the next 5 minutes. Do your best not to fall asleep.",4,2,NA,"#","#","#","#","#","#","R","0025297s1r1","0025297s1r1","0025297/session_1/rest_1/rest.nii.gz"
25297,"Retest_1",15.9,1,"#","#","#","#","#","Please close your eyes and rest for the next 5 minutes. Do your best not to fall asleep.",4,2,NA,"641","d","#","#","#","#","R","0025297s2r1","0025297s2r1","0025297/session_2/rest_1/rest.nii.gz"
25298,"Baseline",14.6,1,"#","#","#","#","#","Please close your eyes and rest for the next 5 minutes. Do your best not to fall asleep.",4,2,NA,"#","#","#","#","#","#","R","0025298s2r1","0025298s1r1","0025298/session_1/rest_1/rest.nii.gz"
25298,"Retest_1",14.6,1,"#","#","#","#","#","Please close your eyes and rest for the next 5 minutes. Do your best not to fall asleep.",4,2,NA,"602","d","#","#","#","#","R","0025298s2r1","0025298s2r1","0025298/session_2/rest_1/rest.nii.gz"
25299,"Baseline",12.2,1,"#","#","#","#","#","Please close your eyes and rest for the next 5 minutes. Do your best not to fall asleep.",4,2,NA,"#","#","#","#","#","#","R","0025299s1r1","0025299s1r1","0025299/session_1/rest_1/rest.nii.gz"
25299,"Retest_1",12.2,1,"#","#","#","#","#","Please close your eyes and rest for the next 5 minutes. Do your best not to fall asleep.",4,2,NA,"1238","d","#","#","#","#","R","0025299s2r1","0025299s2r1","0025299/session_2/rest_1/rest.nii.gz"
25300,"Baseline",13.6,1,"#","#","#","#","#","Please close your eyes and rest for the next 5 minutes. Do your best not to fall asleep.",4,2,NA,"#","#","#","#","#","#","L","0025300s1r1","0025300s1r1","0025300/session_1/rest_1/rest.nii.gz"
25300,"Retest_1",13.6,1,"#","#","#","#","#","Please close your eyes and rest for the next 5 minutes. Do your best not to fall asleep.",4,2,NA,"557","d","#","#","#","#","L","0025300s2r1","0025300s2r1","0025300/session_2/rest_1/rest.nii.gz"
25301,"Baseline",18.9,2,"#","#","#","#","#","Please close your eyes and rest for the next 5 minutes. Do your best not to fall asleep.",4,2,NA,"#","#","#","#","#","#","R","0025301s1r1","0025301s1r1","0025301/session_1/rest_1/rest.nii.gz"
25301,"Retest_1",18.9,2,"#","#","#","#","#","Please close your eyes and rest for the next 5 minutes. Do your best not to fall asleep.",4,2,NA,"1122","d","#","#","#","#","R","0025301s2r1","0025301s2r1","0025301/session_2/rest_1/rest.nii.gz"
25302,"Baseline",10.5,2,"#","#","#","#","#","Please close your eyes and rest for the next 5 minutes. Do your best not to fall asleep.",4,2,NA,"#","#","#","#","#","#","R","0025302s1r1","0025302s1r1","0025302/session_1/rest_1/rest.nii.gz"
25302,"Retest_1",10.5,2,"#","#","#","#","#","Please close your eyes and rest for the next 5 minutes. Do your best not to fall asleep.",4,2,NA,"618","d","#","#","#","#","R","0025302s2r1","0025302s2r1","0025302/session_2/rest_1/rest.nii.gz"
25303,"Baseline",16.7,1,"#","#","#","#","#","Please close your eyes and rest for the next 5 minutes. Do your best not to fall asleep.",4,2,NA,"#","#","#","#","#","#","R","0025303s1r1","0025303s1r1","0025303/session_1/rest_1/rest.nii.gz"
25303,"Retest_1",16.7,1,"#","#","#","#","#","Please close your eyes and rest for the next 5 minutes. Do your best not to fall asleep.",4,2,NA,"1165","d","#","#","#","#","R","0025303s2r1","0025303s2r1","0025303/session_2/rest_1/rest.nii.gz"
25304,"Baseline",11,2,"#","#","#","#","#","Please close your eyes and rest for the next 5 minutes. Do your best not to fall asleep.",4,2,NA,"#","#","#","#","#","#","R","0025304s1r1","0025304s1r1","0025304/session_1/rest_1/rest.nii.gz"
25304,"Retest_1",11,2,"#","#","#","#","#","Please close your eyes and rest for the next 5 minutes. Do your best not to fall asleep.",4,2,NA,"668","d","#","#","#","#","R","0025304s2r1","0025304s2r1","0025304/session_2/rest_1/rest.nii.gz"
25305,"Baseline",11.7,2,"#","#","#","#","#","Please close your eyes and rest for the next 5 minutes. Do your best not to fall asleep.",4,2,NA,"#","#","#","#","#","#","R","0025305s1r1","0025305s1r1","0025305/session_1/rest_1/rest.nii.gz"
25305,"Retest_1",11.7,2,"#","#","#","#","#","Please close your eyes and rest for the next 5 minutes. Do your best not to fall asleep.",4,2,NA,"585","d","#","#","#","#","R","0025305s2r1","0025305s2r1","0025305/session_2/rest_1/rest.nii.gz"
25306,"Baseline",13.9,2,"#","#","#","#","#","Please close your eyes and rest for the next 5 minutes. Do your best not to fall asleep.",4,2,NA,"#","#","#","#","#","#","R","0025306s1r1","0025306s1r1","0025306/session_1/rest_1/rest.nii.gz"
25306,"Retest_1",13.9,2,"#","#","#","#","#","Please close your eyes and rest for the next 5 minutes. Do your best not to fall asleep.",4,2,NA,"577","d","#","#","#","#","R","0025306s2r1","0025306s2r1","0025306/session_2/rest_1/rest.nii.gz"
25309,"Baseline",12.5,1,"#","#","#","#","#","Please close your eyes and rest for the next 5 minutes. Do your best not to fall asleep.",4,2,NA,"#","#","#","#","#","#","L","0025309s1r1","0025309s1r1","0025309/session_1/rest_1/rest.nii.gz"
25309,"Retest_1",12.5,1,"#","#","#","#","#","Please close your eyes and rest for the next 5 minutes. Do your best not to fall asleep.",4,2,NA,"624","d","#","#","#","#","L","0025309s2r1","0025309s2r1","0025309/session_2/rest_1/rest.nii.gz"
25310,"Baseline",12.2,1,"#","#","#","#","#","Please close your eyes and rest for the next 5 minutes. Do your best not to fall asleep.",4,2,NA,"#","#","#","#","#","#","R","0025310s1r1","0025310s1r1","0025310/session_1/rest_1/rest.nii.gz"
25310,"Retest_1",12.2,1,"#","#","#","#","#","Please close your eyes and rest for the next 5 minutes. Do your best not to fall asleep.",4,2,NA,"1164","d","#","#","#","#","R","0025310s2r1","0025310s2r1","0025310/session_2/rest_1/rest.nii.gz"
25311,"Baseline",16.1,2,"#","#","#","#","#","Please close your eyes and rest for the next 5 minutes. Do your best not to fall asleep.",4,2,NA,"#","#","#","#","#","#","R","0025311s1r1","0025311s1r1","0025311/session_1/rest_1/rest.nii.gz"
25311,"Retest_1",16.1,2,"#","#","#","#","#","Please close your eyes and rest for the next 5 minutes. Do your best not to fall asleep.",4,2,NA,"584","d","#","#","#","#","R","0025311s2r1","0025311s2r1","0025311/session_2/rest_1/rest.nii.gz"
25312,"Baseline",10.9,1,"#","#","#","#","#","Please close your eyes and rest for the next 5 minutes. Do your best not to fall asleep.",4,2,NA,"#","#","#","#","#","#","R","0025312s1r1","0025312s1r1","0025312/session_1/rest_1/rest.nii.gz"
25312,"Retest_1",10.9,1,"#","#","#","#","#","Please close your eyes and rest for the next 5 minutes. Do your best not to fall asleep.",4,2,NA,"749","d","#","#","#","#","R","0025312s2r1","0025312s2r1","0025312/session_2/rest_1/rest.nii.gz"
25313,"Baseline",13.9,1,"#","#","#","#","#","Please close your eyes and rest for the next 5 minutes. Do your best not to fall asleep.",4,2,NA,"#","#","#","#","#","#","R","0025313s1r1","0025313s1r1","0025313/session_1/rest_1/rest.nii.gz"
25313,"Retest_1",13.9,1,"#","#","#","#","#","Please close your eyes and rest for the next 5 minutes. Do your best not to fall asleep.",4,2,NA,"856","d","#","#","#","#","R","0025313s2r1","0025313s2r1","0025313/session_2/rest_1/rest.nii.gz"
25314,"Baseline",10.2,1,"#","#","#","#","#","Please close your eyes and rest for the next 5 minutes. Do your best not to fall asleep.",4,2,NA,"#","#","#","#","#","#","R","0025314s1r1","0025314s1r1","0025314/session_1/rest_1/rest.nii.gz"
25314,"Retest_1",10.2,1,"#","#","#","#","#","Please close your eyes and rest for the next 5 minutes. Do your best not to fall asleep.",4,2,NA,"635","d","#","#","#","#","R","0025314s2r1","0025314s2r1","0025314/session_2/rest_1/rest.nii.gz"
25315,"Baseline",10.1,1,"#","#","#","#","#","Please close your eyes and rest for the next 5 minutes. Do your best not to fall asleep.",4,2,NA,"#","#","#","#","#","#","R","0025315s1r1","0025315s1r1","0025315/session_1/rest_1/rest.nii.gz"
25315,"Retest_1",10.1,1,"#","#","#","#","#","Please close your eyes and rest for the next 5 minutes. Do your best not to fall asleep.",4,2,NA,"617","d","#","#","#","#","R","0025315s2r1","0025315s2r1","0025315/session_2/rest_1/rest.nii.gz"
25316,"Baseline",12.3,2,"#","#","#","#","#","Please close your eyes and rest for the next 5 minutes. Do your best not to fall asleep.",4,2,NA,"#","#","#","#","#","#","R","0025316s1r1","0025316s1r1","0025316/session_1/rest_1/rest.nii.gz"
25316,"Retest_1",12.3,2,"#","#","#","#","#","Please close your eyes and rest for the next 5 minutes. Do your best not to fall asleep.",4,2,NA,"473","d","#","#","#","#","R","0025316s2r1","0025316s2r1","0025316/session_2/rest_1/rest.nii.gz"
25317,"Baseline",13,1,"#","#","#","#","#","Please close your eyes and rest for the next 5 minutes. Do your best not to fall asleep.",4,2,NA,"#","#","#","#","#","#","R","0025317s1r1","0025317s1r1","0025317/session_1/rest_1/rest.nii.gz"
25317,"Retest_1",13,1,"#","#","#","#","#","Please close your eyes and rest for the next 5 minutes. Do your best not to fall asleep.",4,2,NA,"778","d","#","#","#","#","R","0025317s2r1","0025317s2r1","0025317/session_2/rest_1/rest.nii.gz"
25318,"Baseline",16.7,2,"#","#","#","#","#","Please close your eyes and rest for the next 5 minutes. Do your best not to fall asleep.",4,2,NA,"#","#","#","#","#","#","R","0025318s1r1","0025318s1r1","0025318/session_1/rest_1/rest.nii.gz"
25318,"Retest_1",16.7,2,"#","#","#","#","#","Please close your eyes and rest for the next 5 minutes. Do your best not to fall asleep.",4,2,NA,"541","d","#","#","#","#","R","0025318s1r1","0025318s2r1","0025318/session_2/rest_1/rest.nii.gz"
25319,"Baseline",15.1,2,"#","#","#","#","#","Please close your eyes and rest for the next 5 minutes. Do your best not to fall asleep.",4,2,NA,"#","#","#","#","#","#","R","0025319s1r1","0025319s1r1","0025319/session_1/rest_1/rest.nii.gz"
25319,"Retest_1",15.1,2,"#","#","#","#","#","Please close your eyes and rest for the next 5 minutes. Do your best not to fall asleep.",4,2,NA,"535","d","#","#","#","#","R","0025319s2r1","0025319s2r1","0025319/session_2/rest_1/rest.nii.gz"
25320,"Baseline",18.7,2,"#","#","#","#","#","Please close your eyes and rest for the next 5 minutes. Do your best not to fall asleep.",4,2,NA,"#","#","#","#","#","#","R","0025320s1r1","0025320s1r1","0025320/session_1/rest_1/rest.nii.gz"
25320,"Retest_1",18.7,2,"#","#","#","#","#","Please close your eyes and rest for the next 5 minutes. Do your best not to fall asleep.",4,2,NA,"668","d","#","#","#","#","R","0025320s2r1","0025320s2r1","0025320/session_2/rest_1/rest.nii.gz"
25321,"Baseline",10.9,1,"#","#","#","#","#","Please close your eyes and rest for the next 5 minutes. Do your best not to fall asleep.",4,2,NA,"#","#","#","#","#","#","R","0025321s1r1","0025321s1r1","0025321/session_1/rest_1/rest.nii.gz"
25321,"Retest_1",10.9,1,"#","#","#","#","#","Please close your eyes and rest for the next 5 minutes. Do your best not to fall asleep.",4,2,NA,"599","d","#","#","#","#","R","0025321s2r1","0025321s2r1","0025321/session_2/rest_1/rest.nii.gz"
25322,"Baseline",13.8,1,"#","#","#","#","#","Please close your eyes and rest for the next 5 minutes. Do your best not to fall asleep.",4,2,NA,"#","#","#","#","#","#","R","0025322s1r1","0025322s1r1","0025322/session_1/rest_1/rest.nii.gz"
25322,"Retest_1",13.8,1,"#","#","#","#","#","Please close your eyes and rest for the next 5 minutes. Do your best not to fall asleep.",4,2,NA,"685","d","#","#","#","#","R","0025322s2r1","0025322s2r1","0025322/session_2/rest_1/rest.nii.gz"
25323,"Baseline",14.8,1,"#","#","#","#","#","Please close your eyes and rest for the next 5 minutes. Do your best not to fall asleep.",4,2,NA,"#","#","#","#","#","#","R","0025323s1r1","0025323s1r1","0025323/session_1/rest_1/rest.nii.gz"
25323,"Retest_1",14.8,1,"#","#","#","#","#","Please close your eyes and rest for the next 5 minutes. Do your best not to fall asleep.",4,2,NA,"609","d","#","#","#","#","R","0025323s2r1","0025323s2r1","0025323/session_2/rest_1/rest.nii.gz"
25324,"Baseline",16.9,2,"#","#","#","#","#","Please close your eyes and rest for the next 5 minutes. Do your best not to fall asleep.",4,2,NA,"#","#","#","#","#","#","L","0025324s1r1","0025324s1r1","0025324/session_1/rest_1/rest.nii.gz"
25324,"Retest_1",16.9,2,"#","#","#","#","#","Please close your eyes and rest for the next 5 minutes. Do your best not to fall asleep.",4,2,NA,"637","d","#","#","#","#","L","0025324s2r1","0025324s2r1","0025324/session_2/rest_1/rest.nii.gz"
25325,"Baseline",18.1,1,"#","#","#","#","#","Please close your eyes and rest for the next 5 minutes. Do your best not to fall asleep.",4,2,NA,"#","#","#","#","#","#","R","0025325s1r1","0025325s1r1","0025325/session_1/rest_1/rest.nii.gz"
25325,"Retest_1",18.1,1,"#","#","#","#","#","Please close your eyes and rest for the next 5 minutes. Do your best not to fall asleep.",4,2,NA,"654","d","#","#","#","#","R","0025325s2r1","0025325s2r1","0025325/session_2/rest_1/rest.nii.gz"
25326,"Baseline",18.9,1,"#","#","#","#","#","Please close your eyes and rest for the next 5 minutes. Do your best not to fall asleep.",4,2,NA,"#","#","#","#","#","#","R","0025326s1r1","0025326s1r1","0025326/session_1/rest_1/rest.nii.gz"
25326,"Retest_1",18.9,1,"#","#","#","#","#","Please close your eyes and rest for the next 5 minutes. Do your best not to fall asleep.",4,2,NA,"651","d","#","#","#","#","R","0025326s2r1","0025326s2r1","0025326/session_2/rest_1/rest.nii.gz"
25327,"Baseline",15.6,1,"#","#","#","#","#","Please close your eyes and rest for the next 5 minutes. Do your best not to fall asleep.",4,2,NA,"#","#","#","#","#","#","R","0025327s1r1","0025327s1r1","0025327/session_1/rest_1/rest.nii.gz"
25327,"Retest_1",15.6,1,"#","#","#","#","#","Please close your eyes and rest for the next 5 minutes. Do your best not to fall asleep.",4,2,NA,"624","d","#","#","#","#","R","0025327s2r1","0025327s2r1","0025327/session_2/rest_1/rest.nii.gz"
25328,"Baseline",12,2,"#","#","#","#","#","Please close your eyes and rest for the next 5 minutes. Do your best not to fall asleep.",4,2,NA,"#","#","#","#","#","#","R","0025328s1r1","0025328s1r1","0025328/session_1/rest_1/rest.nii.gz"
25328,"Retest_1",12,2,"#","#","#","#","#","Please close your eyes and rest for the next 5 minutes. Do your best not to fall asleep.",4,2,NA,"684","d","#","#","#","#","R","0025328s2r1","0025328s2r1","0025328/session_2/rest_1/rest.nii.gz"
25329,"Baseline",18.9,2,"#","#","#","#","#","Please close your eyes and rest for the next 5 minutes. Do your best not to fall asleep.",4,2,NA,"#","#","#","#","#","#","R","0025329s1r1","0025329s1r1","0025329/session_1/rest_1/rest.nii.gz"
25329,"Retest_1",18.9,2,"#","#","#","#","#","Please close your eyes and rest for the next 5 minutes. Do your best not to fall asleep.",4,2,NA,"623","d","#","#","#","#","R","0025329s2r1","0025329s2r1","0025329/session_2/rest_1/rest.nii.gz"
25330,"Baseline",14.2,2,"#","#","#","#","#","Please close your eyes and rest for the next 5 minutes. Do your best not to fall asleep.",4,2,NA,"#","#","#","#","#","#","R","0025330s1r1","0025330s1r1","0025330/session_1/rest_1/rest.nii.gz"
25330,"Retest_1",14.2,2,"#","#","#","#","#","Please close your eyes and rest for the next 5 minutes. Do your best not to fall asleep.",4,2,NA,"545","d","#","#","#","#","R","0025330s2r1","0025330s2r1","0025330/session_2/rest_1/rest.nii.gz"
25331,"Baseline",16.3,2,"#","#","#","#","#","Please close your eyes and rest for the next 5 minutes. Do your best not to fall asleep.",4,2,NA,"#","#","#","#","#","#","R","0025331s1r1","0025331s1r1","0025331/session_1/rest_1/rest.nii.gz"
25331,"Retest_1",16.3,2,"#","#","#","#","#","Please close your eyes and rest for the next 5 minutes. Do your best not to fall asleep.",4,2,NA,"590","d","#","#","#","#","R","0025331s2r1","0025331s2r1","0025331/session_2/rest_1/rest.nii.gz"
25332,"Baseline",16.8,1,"#","#","#","#","#","Please close your eyes and rest for the next 5 minutes. Do your best not to fall asleep.",4,2,NA,"#","#","#","#","#","#","R","0025332s1r1","0025332s1r1","0025332/session_1/rest_1/rest.nii.gz"
25332,"Retest_1",16.8,1,"#","#","#","#","#","Please close your eyes and rest for the next 5 minutes. Do your best not to fall asleep.",4,2,NA,"570","d","#","#","#","#","R","0025332s2r1","0025332s2r1","0025332/session_2/rest_1/rest.nii.gz"
25333,"Baseline",15.3,2,"#","#","#","#","#","Please close your eyes and rest for the next 5 minutes. Do your best not to fall asleep.",4,2,NA,"#","#","#","#","#","#","R","0025333s1r1","0025333s1r1","0025333/session_1/rest_1/rest.nii.gz"
25333,"Retest_1",15.3,2,"#","#","#","#","#","Please close your eyes and rest for the next 5 minutes. Do your best not to fall asleep.",4,2,NA,"526","d","#","#","#","#","R","0025333s2r1","0025333s2r1","0025333/session_2/rest_1/rest.nii.gz"
